# MagicaVoxel @ Ephtracy

# group
o 

# material
mtllib Sign.mtl
usemtl palette

# normals
vn -1 0 0
vn 1 0 0
vn 0 0 1
vn 0 0 -1
vn 0 -1 0
vn 0 1 0

# texcoords
vt 0.0332031 0.5
vt 0.0878906 0.5
vt 0.0917969 0.5

# verts
v 1.3 6.4 -3
v 1.3 6.4 -3.1
v 1.3 6.5 -3
v 1.3 6.5 -3.1
v 1.4 6.3 -3
v 1.4 6.3 -3.1
v 1.4 6.4 -3
v 1.4 6.4 -3.1
v 1.4 6.5 -3
v 1.4 6.5 -3.1
v 1.4 6.6 -3
v 1.4 6.6 -3.1
v 1.5 6.2 -3
v 1.5 6.2 -3.1
v 1.5 6.3 -3
v 1.5 6.3 -3.1
v 1.5 6.6 -3
v 1.5 6.6 -3.1
v 1.5 6.7 -3
v 1.5 6.7 -3.1
v 1.6 6.1 -3
v 1.6 6.1 -3.1
v 1.6 6.2 -3
v 1.6 6.2 -3.1
v 1.6 6.7 -3
v 1.6 6.7 -3.1
v 1.6 6.8 -3
v 1.6 6.8 -3.1
v 2.4 5.1 -3
v 2.4 5.1 -3.1
v 2.4 5.5 -3
v 2.4 5.5 -3.1
v 2.5 5.5 -3
v 2.5 5.5 -3.1
v 2.5 5.6 -3
v 2.5 5.6 -3.1
v 2.7 5.6 -3
v 2.7 5.6 -3.1
v 2.7 5.7 -3
v 2.7 5.7 -3.1
v 2.8 5.7 -3
v 2.8 5.7 -3.1
v 2.8 5.8 -3
v 2.8 5.8 -3.1
v 3 5.8 -3
v 3 5.8 -3.1
v 3 5.9 -3
v 3 5.9 -3.1
v 3.1 2 -2.8
v 3.1 2 -3
v 3.1 5.4 -3
v 3.1 5.7 -3
v 3.1 5.9 -3
v 3.1 6.1 -3
v 3.1 6.8 -3
v 3.1 7.1 -2.8
v 3.1 7.1 -3
v 3.2 5.7 -3.1
v 3.2 5.7 -3.2
v 3.2 5.8 -3.1
v 3.2 5.8 -3.2
v 3.2 5.9 -3
v 3.2 5.9 -3.1
v 3.2 6 -3
v 3.2 6 -3.1
v 3.2 6.3 -3.1
v 3.2 6.3 -3.2
v 3.2 6.4 -3.1
v 3.2 6.4 -3.2
v 2.8 5.1 -3
v 2.8 5.1 -3.1
v 2.8 5.2 -3
v 2.8 5.2 -3.1
v 2.9 5.2 -3
v 2.9 5.2 -3.1
v 2.9 5.3 -3
v 2.9 5.3 -3.1
v 3 5.3 -3
v 3 5.3 -3.1
v 3 5.4 -3
v 3 5.4 -3.1
v 3.1 5.4 -3
v 3.1 5.4 -3.1
v 3.1 5.5 -3
v 3.1 5.5 -3.1
v 3.3 2 -2.8
v 3.3 2 -3
v 3.3 5.5 -3
v 3.3 5.7 -3.1
v 3.3 5.7 -3.2
v 3.3 5.8 -3.1
v 3.3 5.8 -3.2
v 3.3 6 -3
v 3.3 6.1 -3
v 3.3 6.3 -3.1
v 3.3 6.3 -3.2
v 3.3 6.4 -3.1
v 3.3 6.4 -3.2
v 3.3 6.6 -3
v 3.3 6.8 -3
v 3.3 7.1 -2.8
v 3.3 7.1 -3
v 3.4 5.5 -3
v 3.4 5.5 -3.1
v 3.4 6 -3
v 3.4 6 -3.1
v 3.4 6.1 -3
v 3.4 6.1 -3.1
v 3.4 6.2 -3
v 3.4 6.2 -3.1
v 3.4 6.7 -3
v 3.4 6.7 -3.1
v 3.4 6.8 -3
v 3.4 6.8 -3.1
v 3.5 6.2 -3
v 3.5 6.2 -3.1
v 3.5 6.7 -3
v 3.5 6.7 -3.1
v 3.1 2 -2.8
v 3.1 7.1 -2.8
v 3.3 2 -2.8
v 3.3 7.1 -2.8
v 1.3 6.4 -3
v 1.3 6.5 -3
v 1.4 6.3 -3
v 1.4 6.4 -3
v 1.4 6.5 -3
v 1.4 6.6 -3
v 1.5 6.2 -3
v 1.5 6.3 -3
v 1.5 6.6 -3
v 1.5 6.7 -3
v 1.6 6.1 -3
v 1.6 6.2 -3
v 1.6 6.7 -3
v 1.6 6.8 -3
v 2.4 5.1 -3
v 2.4 5.5 -3
v 2.5 5.5 -3
v 2.5 5.6 -3
v 2.7 5.6 -3
v 2.7 5.7 -3
v 2.8 5.1 -3
v 2.8 5.2 -3
v 2.8 5.7 -3
v 2.8 5.8 -3
v 2.9 5.2 -3
v 2.9 5.3 -3
v 2.9 5.7 -3
v 2.9 5.8 -3
v 3 5.3 -3
v 3 5.4 -3
v 3 5.8 -3
v 3 5.9 -3
v 3.1 5.4 -3
v 3.1 5.7 -3
v 3.1 5.9 -3
v 3.1 6.1 -3
v 3.1 6.8 -3
v 3.3 5.5 -3
v 3.3 6 -3
v 3.3 6.1 -3
v 3.3 6.6 -3
v 3.3 6.8 -3
v 3.4 5.5 -3
v 3.4 6 -3
v 3.4 6.1 -3
v 3.4 6.2 -3
v 3.4 6.6 -3
v 3.4 6.7 -3
v 3.4 6.8 -3
v 3.5 6.2 -3
v 3.5 6.7 -3
v 3.1 2 -3
v 3.1 5.4 -3
v 3.1 5.5 -3
v 3.1 5.9 -3
v 3.1 6.1 -3
v 3.1 6.8 -3
v 3.1 7.1 -3
v 3.2 5.9 -3
v 3.2 6 -3
v 3.3 2 -3
v 3.3 5.5 -3
v 3.3 6 -3
v 3.3 6.1 -3
v 3.3 6.8 -3
v 3.3 7.1 -3
v 1.3 6.4 -3.1
v 1.3 6.5 -3.1
v 1.4 6.3 -3.1
v 1.4 6.4 -3.1
v 1.4 6.5 -3.1
v 1.4 6.6 -3.1
v 1.5 6.2 -3.1
v 1.5 6.3 -3.1
v 1.5 6.6 -3.1
v 1.5 6.7 -3.1
v 1.6 6.1 -3.1
v 1.6 6.2 -3.1
v 1.6 6.7 -3.1
v 1.6 6.8 -3.1
v 2.4 5.1 -3.1
v 2.4 5.5 -3.1
v 2.5 5.5 -3.1
v 2.5 5.6 -3.1
v 2.7 5.6 -3.1
v 2.7 5.7 -3.1
v 2.8 5.1 -3.1
v 2.8 5.2 -3.1
v 2.8 5.7 -3.1
v 2.8 5.8 -3.1
v 2.9 5.2 -3.1
v 2.9 5.3 -3.1
v 2.9 5.7 -3.1
v 2.9 5.8 -3.1
v 3 5.3 -3.1
v 3 5.4 -3.1
v 3 5.8 -3.1
v 3 5.9 -3.1
v 3.1 5.4 -3.1
v 3.1 5.5 -3.1
v 3.1 5.7 -3.1
v 3.1 5.8 -3.1
v 3.1 6.6 -3.1
v 3.1 6.8 -3.1
v 3.2 5.7 -3.1
v 3.2 5.8 -3.1
v 3.2 5.9 -3.1
v 3.2 6 -3.1
v 3.2 6.3 -3.1
v 3.2 6.4 -3.1
v 3.3 5.7 -3.1
v 3.3 5.8 -3.1
v 3.3 6.3 -3.1
v 3.3 6.4 -3.1
v 3.4 5.5 -3.1
v 3.4 6 -3.1
v 3.4 6.1 -3.1
v 3.4 6.2 -3.1
v 3.4 6.6 -3.1
v 3.4 6.7 -3.1
v 3.4 6.8 -3.1
v 3.5 6.2 -3.1
v 3.5 6.7 -3.1
v 3.2 5.7 -3.2
v 3.2 5.8 -3.2
v 3.2 6.3 -3.2
v 3.2 6.4 -3.2
v 3.3 5.7 -3.2
v 3.3 5.8 -3.2
v 3.3 6.3 -3.2
v 3.3 6.4 -3.2
v 3.1 2 -2.8
v 3.3 2 -2.8
v 3.1 2 -3
v 3.3 2 -3
v 2.4 5.1 -3
v 2.8 5.1 -3
v 2.4 5.1 -3.1
v 2.8 5.1 -3.1
v 2.8 5.2 -3
v 2.9 5.2 -3
v 2.8 5.2 -3.1
v 2.9 5.2 -3.1
v 2.9 5.3 -3
v 3 5.3 -3
v 2.9 5.3 -3.1
v 3 5.3 -3.1
v 3 5.4 -3
v 3.1 5.4 -3
v 3 5.4 -3.1
v 3.1 5.4 -3.1
v 3.1 5.5 -3
v 3.3 5.5 -3
v 3.4 5.5 -3
v 3.1 5.5 -3.1
v 3.4 5.5 -3.1
v 3.2 5.7 -3.1
v 3.3 5.7 -3.1
v 3.2 5.7 -3.2
v 3.3 5.7 -3.2
v 1.6 6.1 -3
v 3.1 6.1 -3
v 3.3 6.1 -3
v 3.4 6.1 -3
v 1.6 6.1 -3.1
v 3.4 6.1 -3.1
v 1.5 6.2 -3
v 1.6 6.2 -3
v 3.4 6.2 -3
v 3.5 6.2 -3
v 1.5 6.2 -3.1
v 1.6 6.2 -3.1
v 3.4 6.2 -3.1
v 3.5 6.2 -3.1
v 1.4 6.3 -3
v 1.5 6.3 -3
v 1.4 6.3 -3.1
v 1.5 6.3 -3.1
v 3.2 6.3 -3.1
v 3.3 6.3 -3.1
v 3.2 6.3 -3.2
v 3.3 6.3 -3.2
v 1.3 6.4 -3
v 1.4 6.4 -3
v 1.3 6.4 -3.1
v 1.4 6.4 -3.1
v 2.4 5.5 -3
v 2.5 5.5 -3
v 2.4 5.5 -3.1
v 2.5 5.5 -3.1
v 2.5 5.6 -3
v 2.7 5.6 -3
v 2.5 5.6 -3.1
v 2.7 5.6 -3.1
v 2.7 5.7 -3
v 2.8 5.7 -3
v 2.7 5.7 -3.1
v 2.8 5.7 -3.1
v 2.8 5.8 -3
v 2.9 5.8 -3
v 3 5.8 -3
v 2.8 5.8 -3.1
v 2.9 5.8 -3.1
v 3 5.8 -3.1
v 3.2 5.8 -3.1
v 3.3 5.8 -3.1
v 3.2 5.8 -3.2
v 3.3 5.8 -3.2
v 3 5.9 -3
v 3.1 5.9 -3
v 3.2 5.9 -3
v 3 5.9 -3.1
v 3.2 5.9 -3.1
v 3.2 6 -3
v 3.3 6 -3
v 3.4 6 -3
v 3.2 6 -3.1
v 3.4 6 -3.1
v 3.2 6.4 -3.1
v 3.3 6.4 -3.1
v 3.2 6.4 -3.2
v 3.3 6.4 -3.2
v 1.3 6.5 -3
v 1.4 6.5 -3
v 1.3 6.5 -3.1
v 1.4 6.5 -3.1
v 1.4 6.6 -3
v 1.5 6.6 -3
v 1.4 6.6 -3.1
v 1.5 6.6 -3.1
v 1.5 6.7 -3
v 1.6 6.7 -3
v 3.4 6.7 -3
v 3.5 6.7 -3
v 1.5 6.7 -3.1
v 1.6 6.7 -3.1
v 3.4 6.7 -3.1
v 3.5 6.7 -3.1
v 1.6 6.8 -3
v 3.1 6.8 -3
v 3.3 6.8 -3
v 3.4 6.8 -3
v 1.6 6.8 -3.1
v 3.1 6.8 -3.1
v 3.4 6.8 -3.1
v 3.1 7.1 -2.8
v 3.3 7.1 -2.8
v 3.1 7.1 -3
v 3.3 7.1 -3

# faces
f 3/2/1 2/2/1 1/2/1
f 4/2/1 2/2/1 3/2/1
f 7/2/1 6/2/1 5/2/1
f 8/2/1 6/2/1 7/2/1
f 11/2/1 10/2/1 9/2/1
f 12/2/1 10/2/1 11/2/1
f 15/2/1 14/2/1 13/2/1
f 16/2/1 14/2/1 15/2/1
f 19/2/1 18/2/1 17/2/1
f 20/2/1 18/2/1 19/2/1
f 23/2/1 22/2/1 21/2/1
f 24/2/1 22/2/1 23/2/1
f 27/2/1 26/2/1 25/2/1
f 28/2/1 26/2/1 27/2/1
f 31/2/1 30/2/1 29/2/1
f 32/2/1 30/2/1 31/2/1
f 35/2/1 34/2/1 33/2/1
f 36/2/1 34/2/1 35/2/1
f 39/2/1 38/2/1 37/2/1
f 40/2/1 38/2/1 39/2/1
f 43/2/1 42/2/1 41/2/1
f 44/2/1 42/2/1 43/2/1
f 47/3/1 46/3/1 45/3/1
f 48/3/1 46/3/1 47/3/1
f 51/2/1 50/2/1 49/2/1
f 52/2/1 51/2/1 49/2/1
f 53/2/1 52/2/1 49/2/1
f 54/2/1 53/2/1 49/2/1
f 55/2/1 54/2/1 49/2/1
f 56/2/1 55/2/1 49/2/1
f 57/2/1 55/2/1 56/2/1
f 60/1/1 59/1/1 58/1/1
f 61/1/1 59/1/1 60/1/1
f 64/2/1 63/2/1 62/2/1
f 65/2/1 63/2/1 64/2/1
f 68/1/1 67/1/1 66/1/1
f 69/1/1 67/1/1 68/1/1
f 70/2/2 71/2/2 72/2/2
f 72/2/2 71/2/2 73/2/2
f 74/2/2 75/2/2 76/2/2
f 76/2/2 75/2/2 77/2/2
f 78/2/2 79/2/2 80/2/2
f 80/2/2 79/2/2 81/2/2
f 82/2/2 83/2/2 84/2/2
f 84/2/2 83/2/2 85/2/2
f 86/2/2 87/2/2 88/2/2
f 89/1/2 90/1/2 91/1/2
f 91/1/2 90/1/2 92/1/2
f 86/2/2 88/2/2 93/2/2
f 86/2/2 93/2/2 94/2/2
f 95/1/2 96/1/2 97/1/2
f 97/1/2 96/1/2 98/1/2
f 86/2/2 94/2/2 99/2/2
f 86/2/2 99/2/2 100/2/2
f 86/2/2 100/2/2 101/2/2
f 101/2/2 100/2/2 102/2/2
f 103/2/2 104/2/2 105/2/2
f 105/2/2 104/2/2 106/2/2
f 107/2/2 108/2/2 109/2/2
f 109/2/2 108/2/2 110/2/2
f 111/3/2 112/3/2 113/3/2
f 113/3/2 112/3/2 114/3/2
f 115/2/2 116/2/2 117/2/2
f 117/2/2 116/2/2 118/2/2
f 121/2/3 120/2/3 119/2/3
f 122/2/3 120/2/3 121/2/3
f 126/2/3 124/2/3 123/2/3
f 127/2/3 124/2/3 126/2/3
f 130/2/3 126/2/3 125/2/3
f 130/2/3 128/2/3 127/2/3
f 130/2/3 127/2/3 126/2/3
f 131/2/3 128/2/3 130/2/3
f 134/2/3 130/2/3 129/2/3
f 134/2/3 132/2/3 131/2/3
f 134/2/3 131/2/3 130/2/3
f 135/2/3 132/2/3 134/2/3
f 139/2/3 138/2/3 137/2/3
f 141/2/3 140/2/3 139/2/3
f 143/2/3 139/2/3 137/2/3
f 143/2/3 142/2/3 141/2/3
f 143/2/3 141/2/3 139/2/3
f 144/2/3 142/2/3 143/2/3
f 145/2/3 142/2/3 144/2/3
f 147/2/3 146/2/3 145/2/3
f 147/2/3 145/2/3 144/2/3
f 148/2/3 146/2/3 147/2/3
f 149/2/3 146/2/3 148/2/3
f 150/2/3 146/2/3 149/2/3
f 151/2/3 149/2/3 148/2/3
f 152/2/3 149/2/3 151/2/3
f 153/3/3 150/3/3 149/3/3
f 155/2/3 149/2/3 152/2/3
f 156/3/3 153/3/3 149/3/3
f 156/2/3 149/2/3 155/2/3
f 156/3/3 154/3/3 153/3/3
f 157/3/3 154/3/3 156/3/3
f 158/2/3 134/2/3 133/2/3
f 158/2/3 135/2/3 134/2/3
f 158/2/3 136/2/3 135/2/3
f 159/2/3 136/2/3 158/2/3
f 165/2/3 161/2/3 160/2/3
f 166/2/3 161/2/3 165/2/3
f 167/2/3 163/2/3 162/2/3
f 168/2/3 163/2/3 167/2/3
f 169/3/3 164/3/3 163/3/3
f 169/2/3 163/2/3 168/2/3
f 170/3/3 164/3/3 169/3/3
f 171/3/3 164/3/3 170/3/3
f 172/2/3 170/2/3 169/2/3
f 172/2/3 169/2/3 168/2/3
f 173/2/3 170/2/3 172/2/3
f 177/2/4 178/2/4 181/2/4
f 181/2/4 178/2/4 182/2/4
f 174/2/4 175/2/4 183/2/4
f 175/2/4 176/2/4 183/2/4
f 183/2/4 176/2/4 184/2/4
f 182/2/4 178/2/4 185/2/4
f 185/2/4 178/2/4 186/2/4
f 179/2/4 180/2/4 187/2/4
f 187/2/4 180/2/4 188/2/4
f 189/2/4 190/2/4 192/2/4
f 192/2/4 190/2/4 193/2/4
f 191/2/4 192/2/4 196/2/4
f 193/2/4 194/2/4 196/2/4
f 192/2/4 193/2/4 196/2/4
f 196/2/4 194/2/4 197/2/4
f 195/2/4 196/2/4 200/2/4
f 197/2/4 198/2/4 200/2/4
f 196/2/4 197/2/4 200/2/4
f 200/2/4 198/2/4 201/2/4
f 203/2/4 204/2/4 205/2/4
f 205/2/4 206/2/4 207/2/4
f 203/2/4 205/2/4 209/2/4
f 207/2/4 208/2/4 209/2/4
f 205/2/4 207/2/4 209/2/4
f 209/2/4 208/2/4 210/2/4
f 210/2/4 208/2/4 211/2/4
f 211/2/4 212/2/4 213/2/4
f 210/2/4 211/2/4 213/2/4
f 213/2/4 212/2/4 214/2/4
f 214/2/4 212/2/4 215/2/4
f 215/2/4 212/2/4 216/2/4
f 214/2/4 215/2/4 217/2/4
f 217/2/4 215/2/4 218/2/4
f 215/3/4 216/3/4 219/3/4
f 218/2/4 215/2/4 221/2/4
f 221/2/4 215/2/4 222/2/4
f 215/3/4 219/3/4 223/3/4
f 222/2/4 215/2/4 223/2/4
f 219/3/4 220/3/4 223/3/4
f 223/3/4 220/3/4 224/3/4
f 199/2/4 200/2/4 225/2/4
f 200/2/4 201/2/4 225/2/4
f 201/2/4 202/2/4 225/2/4
f 225/2/4 202/2/4 226/2/4
f 223/2/4 224/2/4 227/2/4
f 222/2/4 223/2/4 227/2/4
f 224/3/4 220/3/4 228/3/4
f 227/2/4 224/2/4 228/2/4
f 228/3/4 220/3/4 229/3/4
f 199/2/4 225/2/4 231/2/4
f 231/2/4 225/2/4 232/2/4
f 222/2/4 227/2/4 233/2/4
f 229/2/4 230/2/4 234/2/4
f 228/2/4 229/2/4 234/2/4
f 199/2/4 231/2/4 235/2/4
f 232/2/4 225/2/4 236/2/4
f 222/2/4 233/2/4 237/2/4
f 233/2/4 234/2/4 237/2/4
f 234/2/4 230/2/4 238/2/4
f 237/2/4 234/2/4 238/2/4
f 199/2/4 235/2/4 239/2/4
f 235/2/4 236/2/4 239/2/4
f 239/2/4 236/2/4 240/2/4
f 225/3/4 226/3/4 241/3/4
f 240/2/4 236/2/4 241/2/4
f 236/2/4 225/2/4 241/2/4
f 241/3/4 226/3/4 242/3/4
f 242/3/4 226/3/4 243/3/4
f 241/2/4 242/2/4 244/2/4
f 240/2/4 241/2/4 244/2/4
f 244/2/4 242/2/4 245/2/4
f 246/1/4 247/1/4 250/1/4
f 250/1/4 247/1/4 251/1/4
f 248/1/4 249/1/4 252/1/4
f 252/1/4 249/1/4 253/1/4
f 256/2/5 255/2/5 254/2/5
f 257/2/5 255/2/5 256/2/5
f 260/2/5 259/2/5 258/2/5
f 261/2/5 259/2/5 260/2/5
f 264/2/5 263/2/5 262/2/5
f 265/2/5 263/2/5 264/2/5
f 268/2/5 267/2/5 266/2/5
f 269/2/5 267/2/5 268/2/5
f 272/2/5 271/2/5 270/2/5
f 273/2/5 271/2/5 272/2/5
f 277/2/5 275/2/5 274/2/5
f 277/2/5 276/2/5 275/2/5
f 278/2/5 276/2/5 277/2/5
f 281/1/5 280/1/5 279/1/5
f 282/1/5 280/1/5 281/1/5
f 287/2/5 284/2/5 283/2/5
f 287/2/5 286/2/5 285/2/5
f 287/2/5 285/2/5 284/2/5
f 288/2/5 286/2/5 287/2/5
f 293/2/5 290/2/5 289/2/5
f 294/2/5 290/2/5 293/2/5
f 295/2/5 292/2/5 291/2/5
f 296/2/5 292/2/5 295/2/5
f 299/2/5 298/2/5 297/2/5
f 300/2/5 298/2/5 299/2/5
f 303/1/5 302/1/5 301/1/5
f 304/1/5 302/1/5 303/1/5
f 307/2/5 306/2/5 305/2/5
f 308/2/5 306/2/5 307/2/5
f 309/2/6 310/2/6 311/2/6
f 311/2/6 310/2/6 312/2/6
f 313/2/6 314/2/6 315/2/6
f 315/2/6 314/2/6 316/2/6
f 317/2/6 318/2/6 319/2/6
f 319/2/6 318/2/6 320/2/6
f 321/2/6 322/2/6 324/2/6
f 322/3/6 323/3/6 325/3/6
f 324/2/6 322/2/6 325/2/6
f 325/3/6 323/3/6 326/3/6
f 327/1/6 328/1/6 329/1/6
f 329/1/6 328/1/6 330/1/6
f 331/3/6 332/3/6 334/3/6
f 332/3/6 333/3/6 334/3/6
f 334/3/6 333/3/6 335/3/6
f 336/2/6 337/2/6 339/2/6
f 337/2/6 338/2/6 339/2/6
f 339/2/6 338/2/6 340/2/6
f 341/1/6 342/1/6 343/1/6
f 343/1/6 342/1/6 344/1/6
f 345/2/6 346/2/6 347/2/6
f 347/2/6 346/2/6 348/2/6
f 349/2/6 350/2/6 351/2/6
f 351/2/6 350/2/6 352/2/6
f 353/2/6 354/2/6 357/2/6
f 357/2/6 354/2/6 358/2/6
f 355/2/6 356/2/6 359/2/6
f 359/2/6 356/2/6 360/2/6
f 361/2/6 362/2/6 365/2/6
f 363/3/6 364/3/6 366/3/6
f 365/2/6 362/2/6 366/2/6
f 362/3/6 363/3/6 366/3/6
f 366/3/6 364/3/6 367/3/6
f 368/2/6 369/2/6 370/2/6
f 370/2/6 369/2/6 371/2/6
