{
    "name": "main",
    "references": [
        "GUID:9e24947de15b9834991c9d8411ea37cf",
        "GUID:84651a3751eca9349aac36a66bba901b",
        "GUID:34fe8fb9a5bd3c043b9602dffc26d3f3",
        "GUID:ddff3252aa529f34a88598afb920a708"
    ],
    "includePlatforms": [],
    "excludePlatforms": [],
    "allowUnsafeCode": false,
    "overrideReferences": false,
    "precompiledReferences": [],
    "autoReferenced": true,
    "defineConstraints": [],
    "versionDefines": [],
    "noEngineReferences": false
}