# MagicaVoxel @ Ephtracy

# group
o 

# material
mtllib human_0-4.mtl
usemtl palette

# normals
vn -1 0 0
vn 1 0 0
vn 0 0 1
vn 0 0 -1
vn 0 -1 0
vn 0 1 0

# texcoords
vt 0.0253906 0.5
vt 0.0761719 0.5
vt 0.0800781 0.5
vt 0.0839844 0.5

# verts
v -0.1 1.6 0.9
v -0.1 1.6 0.8
v -0.1 1.6 0.7
v -0.1 1.6 0.6
v -0.1 2 0.9
v -0.1 2 0.8
v -0.1 2 0.7
v -0.1 2 0.6
v -4.47035e-008 0.6 0.9
v -4.47035e-008 0.6 0.7
v -4.47035e-008 0.8 0.9
v -4.47035e-008 0.8 0.8
v -4.47035e-008 1.6 0.8
v -4.47035e-008 1.6 0.7
v 0.1 2 0.8
v 0.1 2 0.7
v 0.1 2.1 0.8
v 0.1 2.1 0.7
v 0.2 0.6 0.9
v 0.2 0.6 0.7
v 0.2 0.8 0.9
v 0.2 0.8 0.8
v 0.2 1.6 0.8
v 0.2 1.6 0.7
v 0.2 2 0.8
v 0.2 2 0.7
v 0.2 2.1 0.8
v 0.2 2.1 0.7
v 0.3 1.6 0.9
v 0.3 1.6 0.8
v 0.3 1.6 0.7
v 0.3 1.6 0.6
v 0.3 2 0.9
v 0.3 2 0.8
v 0.3 2 0.7
v 0.3 2 0.6
v -0.1 1.6 0.9
v -0.1 2 0.9
v -4.47035e-008 0.6 0.9
v -4.47035e-008 0.8 0.9
v 0.2 0.6 0.9
v 0.2 0.8 0.9
v 0.3 1.6 0.9
v 0.3 2 0.9
v -4.47035e-008 0.8 0.8
v -4.47035e-008 1.6 0.8
v 0.1 2 0.8
v 0.1 2.1 0.8
v 0.2 0.8 0.8
v 0.2 1.6 0.8
v 0.2 2 0.8
v 0.2 2.1 0.8
v -4.47035e-008 0.6 0.7
v -4.47035e-008 1.6 0.7
v 0.1 2 0.7
v 0.1 2.1 0.7
v 0.2 0.6 0.7
v 0.2 1.6 0.7
v 0.2 2 0.7
v 0.2 2.1 0.7
v -0.1 1.6 0.6
v -0.1 2 0.6
v 0.3 1.6 0.6
v 0.3 2 0.6
v -4.47035e-008 0.6 0.9
v 0.2 0.6 0.9
v -4.47035e-008 0.6 0.7
v 0.2 0.6 0.7
v -0.1 1.6 0.9
v 0.3 1.6 0.9
v -0.1 1.6 0.8
v -4.47035e-008 1.6 0.8
v 0.2 1.6 0.8
v 0.3 1.6 0.8
v -0.1 1.6 0.7
v -4.47035e-008 1.6 0.7
v 0.2 1.6 0.7
v 0.3 1.6 0.7
v -0.1 1.6 0.6
v 0.3 1.6 0.6
v -4.47035e-008 0.8 0.9
v 0.2 0.8 0.9
v -4.47035e-008 0.8 0.8
v 0.2 0.8 0.8
v -0.1 2 0.9
v 0.3 2 0.9
v -0.1 2 0.8
v 0.1 2 0.8
v 0.2 2 0.8
v 0.3 2 0.8
v -0.1 2 0.7
v 0.1 2 0.7
v 0.2 2 0.7
v 0.3 2 0.7
v -0.1 2 0.6
v 0.3 2 0.6
v 0.1 2.1 0.8
v 0.2 2.1 0.8
v 0.1 2.1 0.7
v 0.2 2.1 0.7

# faces
f 5/3/1 2/3/1 1/3/1
f 6/4/1 3/4/1 2/4/1
f 6/3/1 2/3/1 5/3/1
f 7/3/1 4/3/1 3/3/1
f 7/4/1 3/4/1 6/4/1
f 8/3/1 4/3/1 7/3/1
f 11/1/1 10/1/1 9/1/1
f 12/1/1 10/1/1 11/1/1
f 13/1/1 10/1/1 12/1/1
f 14/1/1 10/1/1 13/1/1
f 17/2/1 16/2/1 15/2/1
f 18/2/1 16/2/1 17/2/1
f 19/1/2 20/1/2 21/1/2
f 21/1/2 20/1/2 22/1/2
f 22/1/2 20/1/2 23/1/2
f 23/1/2 20/1/2 24/1/2
f 25/2/2 26/2/2 27/2/2
f 27/2/2 26/2/2 28/2/2
f 29/3/2 30/3/2 33/3/2
f 30/4/2 31/4/2 34/4/2
f 33/3/2 30/3/2 34/3/2
f 31/3/2 32/3/2 35/3/2
f 34/4/2 31/4/2 35/4/2
f 35/3/2 32/3/2 36/3/2
f 41/1/3 40/1/3 39/1/3
f 42/1/3 40/1/3 41/1/3
f 43/3/3 38/3/3 37/3/3
f 44/3/3 38/3/3 43/3/3
f 49/1/3 46/1/3 45/1/3
f 50/1/3 46/1/3 49/1/3
f 51/2/3 48/2/3 47/2/3
f 52/2/3 48/2/3 51/2/3
f 53/1/4 54/1/4 57/1/4
f 57/1/4 54/1/4 58/1/4
f 55/2/4 56/2/4 59/2/4
f 59/2/4 56/2/4 60/2/4
f 61/3/4 62/3/4 63/3/4
f 63/3/4 62/3/4 64/3/4
f 67/1/5 66/1/5 65/1/5
f 68/1/5 66/1/5 67/1/5
f 71/3/5 70/3/5 69/3/5
f 72/3/5 70/3/5 71/3/5
f 73/3/5 70/3/5 72/3/5
f 74/3/5 70/3/5 73/3/5
f 75/4/5 72/4/5 71/4/5
f 76/4/5 72/4/5 75/4/5
f 77/4/5 74/4/5 73/4/5
f 78/4/5 74/4/5 77/4/5
f 79/3/5 76/3/5 75/3/5
f 79/3/5 77/3/5 76/3/5
f 79/3/5 78/3/5 77/3/5
f 80/3/5 78/3/5 79/3/5
f 81/1/6 82/1/6 83/1/6
f 83/1/6 82/1/6 84/1/6
f 85/3/6 86/3/6 87/3/6
f 87/3/6 86/3/6 88/3/6
f 88/3/6 86/3/6 89/3/6
f 89/3/6 86/3/6 90/3/6
f 87/4/6 88/4/6 91/4/6
f 91/4/6 88/4/6 92/4/6
f 89/4/6 90/4/6 93/4/6
f 93/4/6 90/4/6 94/4/6
f 91/3/6 92/3/6 95/3/6
f 92/3/6 93/3/6 95/3/6
f 93/3/6 94/3/6 95/3/6
f 95/3/6 94/3/6 96/3/6
f 97/2/6 98/2/6 99/2/6
f 99/2/6 98/2/6 100/2/6
