# MagicaVoxel @ Ephtracy

# group
o 

# material
mtllib human_1-3.mtl
usemtl palette

# normals
vn -1 0 0
vn 1 0 0
vn 0 0 1
vn 0 0 -1
vn 0 -1 0
vn 0 1 0

# texcoords
vt 0.0253906 0.5
vt 0.0761719 0.5

# verts
v -0.1 1.6 -0.6
v -0.1 1.6 -0.9
v -0.1 2 -0.6
v -0.1 2 -0.9
v -4.47035e-008 0.6 -0.7
v -4.47035e-008 0.6 -0.9
v -4.47035e-008 0.8 -0.8
v -4.47035e-008 0.8 -0.9
v -4.47035e-008 1.6 -0.7
v -4.47035e-008 1.6 -0.8
v 0.1 2 -0.7
v 0.1 2 -0.8
v 0.1 2.1 -0.7
v 0.1 2.1 -0.8
v 0.2 0.6 -0.7
v 0.2 0.6 -0.9
v 0.2 0.8 -0.8
v 0.2 0.8 -0.9
v 0.2 1.6 -0.7
v 0.2 1.6 -0.8
v 0.2 2 -0.7
v 0.2 2 -0.8
v 0.2 2.1 -0.7
v 0.2 2.1 -0.8
v 0.3 1.6 -0.6
v 0.3 1.6 -0.9
v 0.3 2 -0.6
v 0.3 2 -0.9
v -0.1 1.6 -0.6
v -0.1 2 -0.6
v 0.3 1.6 -0.6
v 0.3 2 -0.6
v -4.47035e-008 0.6 -0.7
v -4.47035e-008 1.6 -0.7
v 0.1 2 -0.7
v 0.1 2.1 -0.7
v 0.2 0.6 -0.7
v 0.2 1.6 -0.7
v 0.2 2 -0.7
v 0.2 2.1 -0.7
v -4.47035e-008 0.8 -0.8
v -4.47035e-008 1.6 -0.8
v 0.1 2 -0.8
v 0.1 2.1 -0.8
v 0.2 0.8 -0.8
v 0.2 1.6 -0.8
v 0.2 2 -0.8
v 0.2 2.1 -0.8
v -0.1 1.6 -0.9
v -0.1 2 -0.9
v -4.47035e-008 0.6 -0.9
v -4.47035e-008 0.8 -0.9
v 0.2 0.6 -0.9
v 0.2 0.8 -0.9
v 0.3 1.6 -0.9
v 0.3 2 -0.9
v -4.47035e-008 0.6 -0.7
v 0.2 0.6 -0.7
v -4.47035e-008 0.6 -0.9
v 0.2 0.6 -0.9
v -0.1 1.6 -0.6
v 0.3 1.6 -0.6
v -4.47035e-008 1.6 -0.7
v 0.2 1.6 -0.7
v -4.47035e-008 1.6 -0.8
v 0.2 1.6 -0.8
v -0.1 1.6 -0.9
v 0.3 1.6 -0.9
v -4.47035e-008 0.8 -0.8
v 0.2 0.8 -0.8
v -4.47035e-008 0.8 -0.9
v 0.2 0.8 -0.9
v -0.1 2 -0.6
v 0.3 2 -0.6
v 0.1 2 -0.7
v 0.2 2 -0.7
v 0.1 2 -0.8
v 0.2 2 -0.8
v -0.1 2 -0.9
v 0.3 2 -0.9
v 0.1 2.1 -0.7
v 0.2 2.1 -0.7
v 0.1 2.1 -0.8
v 0.2 2.1 -0.8

# faces
f 3/1/1 2/1/1 1/1/1
f 4/1/1 2/1/1 3/1/1
f 7/1/1 6/1/1 5/1/1
f 8/1/1 6/1/1 7/1/1
f 9/1/1 7/1/1 5/1/1
f 10/1/1 7/1/1 9/1/1
f 13/2/1 12/2/1 11/2/1
f 14/2/1 12/2/1 13/2/1
f 15/1/2 16/1/2 17/1/2
f 17/1/2 16/1/2 18/1/2
f 15/1/2 17/1/2 19/1/2
f 19/1/2 17/1/2 20/1/2
f 21/2/2 22/2/2 23/2/2
f 23/2/2 22/2/2 24/2/2
f 25/1/2 26/1/2 27/1/2
f 27/1/2 26/1/2 28/1/2
f 31/1/3 30/1/3 29/1/3
f 32/1/3 30/1/3 31/1/3
f 37/1/3 34/1/3 33/1/3
f 38/1/3 34/1/3 37/1/3
f 39/2/3 36/2/3 35/2/3
f 40/2/3 36/2/3 39/2/3
f 41/1/4 42/1/4 45/1/4
f 45/1/4 42/1/4 46/1/4
f 43/2/4 44/2/4 47/2/4
f 47/2/4 44/2/4 48/2/4
f 51/1/4 52/1/4 53/1/4
f 53/1/4 52/1/4 54/1/4
f 49/1/4 50/1/4 55/1/4
f 55/1/4 50/1/4 56/1/4
f 59/1/5 58/1/5 57/1/5
f 60/1/5 58/1/5 59/1/5
f 63/1/5 62/1/5 61/1/5
f 64/1/5 62/1/5 63/1/5
f 65/1/5 63/1/5 61/1/5
f 66/1/5 62/1/5 64/1/5
f 67/1/5 65/1/5 61/1/5
f 67/1/5 66/1/5 65/1/5
f 68/1/5 62/1/5 66/1/5
f 68/1/5 66/1/5 67/1/5
f 69/1/6 70/1/6 71/1/6
f 71/1/6 70/1/6 72/1/6
f 73/1/6 74/1/6 75/1/6
f 75/1/6 74/1/6 76/1/6
f 73/1/6 75/1/6 77/1/6
f 76/1/6 74/1/6 78/1/6
f 73/1/6 77/1/6 79/1/6
f 77/1/6 78/1/6 79/1/6
f 78/1/6 74/1/6 80/1/6
f 79/1/6 78/1/6 80/1/6
f 81/2/6 82/2/6 83/2/6
f 83/2/6 82/2/6 84/2/6
