%YAML 1.1
%TAG !u! tag:unity3d.com,2011:
--- !u!1 &5969169776931538212
GameObject:
  m_ObjectHideFlags: 0
  m_CorrespondingSourceObject: {fileID: 0}
  m_PrefabInstance: {fileID: 0}
  m_PrefabAsset: {fileID: 0}
  serializedVersion: 6
  m_Component:
  - component: {fileID: 2862279001006730504}
  m_Layer: 0
  m_Name: tree_leafy_1
  m_TagString: Untagged
  m_Icon: {fileID: 0}
  m_NavMeshLayer: 0
  m_StaticEditorFlags: 0
  m_IsActive: 1
--- !u!4 &2862279001006730504
Transform:
  m_ObjectHideFlags: 0
  m_CorrespondingSourceObject: {fileID: 0}
  m_PrefabInstance: {fileID: 0}
  m_PrefabAsset: {fileID: 0}
  m_GameObject: {fileID: 5969169776931538212}
  m_LocalRotation: {x: 0, y: 0, z: 0, w: 1}
  m_LocalPosition: {x: 0, y: 0, z: 0}
  m_LocalScale: {x: 0.5, y: 0.5, z: 0.5}
  m_Children:
  - {fileID: 8396718319520538184}
  - {fileID: 8187293728363205073}
  m_Father: {fileID: 0}
  m_RootOrder: 0
  m_LocalEulerAnglesHint: {x: 0, y: 0, z: 0}
--- !u!1001 &3602200325774177618
PrefabInstance:
  m_ObjectHideFlags: 0
  serializedVersion: 2
  m_Modification:
    m_TransformParent: {fileID: 2862279001006730504}
    m_Modifications:
    - target: {fileID: -4216859302048453862, guid: b941c7ea04a21d94d9b84227049c968f,
        type: 3}
      propertyPath: m_LocalPosition.x
      value: 0
      objectReference: {fileID: 0}
    - target: {fileID: -4216859302048453862, guid: b941c7ea04a21d94d9b84227049c968f,
        type: 3}
      propertyPath: m_LocalPosition.y
      value: 0
      objectReference: {fileID: 0}
    - target: {fileID: -4216859302048453862, guid: b941c7ea04a21d94d9b84227049c968f,
        type: 3}
      propertyPath: m_LocalPosition.z
      value: 0
      objectReference: {fileID: 0}
    - target: {fileID: -4216859302048453862, guid: b941c7ea04a21d94d9b84227049c968f,
        type: 3}
      propertyPath: m_LocalRotation.x
      value: -0
      objectReference: {fileID: 0}
    - target: {fileID: -4216859302048453862, guid: b941c7ea04a21d94d9b84227049c968f,
        type: 3}
      propertyPath: m_LocalRotation.y
      value: -0
      objectReference: {fileID: 0}
    - target: {fileID: -4216859302048453862, guid: b941c7ea04a21d94d9b84227049c968f,
        type: 3}
      propertyPath: m_LocalRotation.z
      value: -0
      objectReference: {fileID: 0}
    - target: {fileID: -4216859302048453862, guid: b941c7ea04a21d94d9b84227049c968f,
        type: 3}
      propertyPath: m_LocalRotation.w
      value: 1
      objectReference: {fileID: 0}
    - target: {fileID: -4216859302048453862, guid: b941c7ea04a21d94d9b84227049c968f,
        type: 3}
      propertyPath: m_RootOrder
      value: 0
      objectReference: {fileID: 0}
    - target: {fileID: -4216859302048453862, guid: b941c7ea04a21d94d9b84227049c968f,
        type: 3}
      propertyPath: m_LocalEulerAnglesHint.x
      value: 0
      objectReference: {fileID: 0}
    - target: {fileID: -4216859302048453862, guid: b941c7ea04a21d94d9b84227049c968f,
        type: 3}
      propertyPath: m_LocalEulerAnglesHint.y
      value: 0
      objectReference: {fileID: 0}
    - target: {fileID: -4216859302048453862, guid: b941c7ea04a21d94d9b84227049c968f,
        type: 3}
      propertyPath: m_LocalEulerAnglesHint.z
      value: 0
      objectReference: {fileID: 0}
    - target: {fileID: -2416733968201007103, guid: b941c7ea04a21d94d9b84227049c968f,
        type: 3}
      propertyPath: m_Materials.Array.data[0]
      value: 
      objectReference: {fileID: 2100000, guid: 2821d9a5c5d6ed94c9f7281211e6c465, type: 2}
    - target: {fileID: -927199367670048503, guid: b941c7ea04a21d94d9b84227049c968f,
        type: 3}
      propertyPath: m_Name
      value: tree_leafy_1-1
      objectReference: {fileID: 0}
    m_RemovedComponents: []
  m_SourcePrefab: {fileID: 100100000, guid: b941c7ea04a21d94d9b84227049c968f, type: 3}
--- !u!4 &8396718319520538184 stripped
Transform:
  m_CorrespondingSourceObject: {fileID: -4216859302048453862, guid: b941c7ea04a21d94d9b84227049c968f,
    type: 3}
  m_PrefabInstance: {fileID: 3602200325774177618}
  m_PrefabAsset: {fileID: 0}
--- !u!1001 &3811637970554256075
PrefabInstance:
  m_ObjectHideFlags: 0
  serializedVersion: 2
  m_Modification:
    m_TransformParent: {fileID: 2862279001006730504}
    m_Modifications:
    - target: {fileID: -4216859302048453862, guid: fb40cd53a2ed2a2478ad867bed7dbe23,
        type: 3}
      propertyPath: m_LocalPosition.x
      value: 0
      objectReference: {fileID: 0}
    - target: {fileID: -4216859302048453862, guid: fb40cd53a2ed2a2478ad867bed7dbe23,
        type: 3}
      propertyPath: m_LocalPosition.y
      value: 0
      objectReference: {fileID: 0}
    - target: {fileID: -4216859302048453862, guid: fb40cd53a2ed2a2478ad867bed7dbe23,
        type: 3}
      propertyPath: m_LocalPosition.z
      value: 0
      objectReference: {fileID: 0}
    - target: {fileID: -4216859302048453862, guid: fb40cd53a2ed2a2478ad867bed7dbe23,
        type: 3}
      propertyPath: m_LocalRotation.x
      value: -0
      objectReference: {fileID: 0}
    - target: {fileID: -4216859302048453862, guid: fb40cd53a2ed2a2478ad867bed7dbe23,
        type: 3}
      propertyPath: m_LocalRotation.y
      value: -0
      objectReference: {fileID: 0}
    - target: {fileID: -4216859302048453862, guid: fb40cd53a2ed2a2478ad867bed7dbe23,
        type: 3}
      propertyPath: m_LocalRotation.z
      value: -0
      objectReference: {fileID: 0}
    - target: {fileID: -4216859302048453862, guid: fb40cd53a2ed2a2478ad867bed7dbe23,
        type: 3}
      propertyPath: m_LocalRotation.w
      value: 1
      objectReference: {fileID: 0}
    - target: {fileID: -4216859302048453862, guid: fb40cd53a2ed2a2478ad867bed7dbe23,
        type: 3}
      propertyPath: m_RootOrder
      value: 1
      objectReference: {fileID: 0}
    - target: {fileID: -4216859302048453862, guid: fb40cd53a2ed2a2478ad867bed7dbe23,
        type: 3}
      propertyPath: m_LocalEulerAnglesHint.x
      value: 0
      objectReference: {fileID: 0}
    - target: {fileID: -4216859302048453862, guid: fb40cd53a2ed2a2478ad867bed7dbe23,
        type: 3}
      propertyPath: m_LocalEulerAnglesHint.y
      value: 0
      objectReference: {fileID: 0}
    - target: {fileID: -4216859302048453862, guid: fb40cd53a2ed2a2478ad867bed7dbe23,
        type: 3}
      propertyPath: m_LocalEulerAnglesHint.z
      value: 0
      objectReference: {fileID: 0}
    - target: {fileID: -2416733968201007103, guid: fb40cd53a2ed2a2478ad867bed7dbe23,
        type: 3}
      propertyPath: m_Materials.Array.data[0]
      value: 
      objectReference: {fileID: 2100000, guid: 2821d9a5c5d6ed94c9f7281211e6c465, type: 2}
    - target: {fileID: -927199367670048503, guid: fb40cd53a2ed2a2478ad867bed7dbe23,
        type: 3}
      propertyPath: m_Name
      value: tree_leafy_1-0
      objectReference: {fileID: 0}
    m_RemovedComponents: []
  m_SourcePrefab: {fileID: 100100000, guid: fb40cd53a2ed2a2478ad867bed7dbe23, type: 3}
--- !u!4 &8187293728363205073 stripped
Transform:
  m_CorrespondingSourceObject: {fileID: -4216859302048453862, guid: fb40cd53a2ed2a2478ad867bed7dbe23,
    type: 3}
  m_PrefabInstance: {fileID: 3811637970554256075}
  m_PrefabAsset: {fileID: 0}
