# MagicaVoxel @ Ephtracy

# group
o 

# material
mtllib human.mtl
usemtl palette

# normals
vn -1 0 0
vn 1 0 0
vn 0 0 1
vn 0 0 -1
vn 0 -1 0
vn 0 1 0

# texcoords
vt 0.00195313 0.5
vt 0.00585938 0.5
vt 0.0175781 0.5
vt 0.0253906 0.5

# verts
v 2.6 6 -2.7
v 2.6 6 -3.3
v 2.6 6.2 -2.7
v 2.6 6.2 -3.3
v 2.7 5.8 -2.8
v 2.7 5.8 -3.2
v 2.7 6 -2.6
v 2.7 6 -2.7
v 2.7 6 -2.8
v 2.7 6 -3.2
v 2.7 6 -3.3
v 2.7 6 -3.4
v 2.7 6.2 -2.6
v 2.7 6.2 -2.7
v 2.7 6.2 -3.3
v 2.7 6.2 -3.4
v 2.8 3.8 -2.4
v 2.8 3.8 -3.6
v 2.8 5.4 -2.4
v 2.8 5.4 -2.6
v 2.8 5.4 -3.4
v 2.8 5.4 -3.6
v 2.8 5.5 -2.6
v 2.8 5.5 -3.4
v 2.8 5.7 -2.7
v 2.8 5.7 -3.3
v 2.8 5.8 -2.8
v 2.8 5.8 -3.2
v 2.8 6 -2.7
v 2.8 6 -2.8
v 2.8 6 -3.2
v 2.8 6 -3.3
v 2.8 6.2 -2.7
v 2.8 6.2 -3.3
v 2.8 6.3 -2.7
v 2.8 6.3 -3.3
v 2.9 2.2 -2.4
v 2.9 2.2 -2.8
v 2.9 2.2 -3.2
v 2.9 2.2 -3.6
v 2.9 3.5 -2.8
v 2.9 3.5 -3.2
v 2.9 3.8 -2.4
v 2.9 3.8 -3.6
v 2.9 5 -1.7
v 2.9 5 -2.4
v 2.9 5 -3.6
v 2.9 5 -4.3
v 2.9 5.3 -1.7
v 2.9 5.3 -2.4
v 2.9 5.3 -3.6
v 2.9 5.3 -4.3
v 2.9 5.5 -2.8
v 2.9 5.5 -3.2
v 2.9 5.7 -2.8
v 2.9 5.7 -3.2
v 2.9 6.3 -2.8
v 2.9 6.3 -3.2
v 2.9 6.4 -2.8
v 2.9 6.4 -3.2
v 3 2 -2.4
v 3 2 -2.8
v 3 2 -3.2
v 3 2 -3.6
v 3 2.1 -2.4
v 3 2.1 -2.5
v 3 2.1 -2.7
v 3 2.1 -2.8
v 3 2.1 -3.2
v 3 2.1 -3.3
v 3 2.1 -3.5
v 3 2.1 -3.6
v 3 2.2 -2.5
v 3 2.2 -2.7
v 3 2.2 -3.3
v 3 2.2 -3.5
v 3 5.1 -0.8
v 3 5.1 -1.7
v 3 5.1 -4.3
v 3 5.1 -5.2
v 3 5.2 -1
v 3 5.2 -1.7
v 3 5.2 -4.3
v 3 5.2 -5
v 3 5.3 -0.8
v 3 5.3 -1
v 3 5.3 -5
v 3 5.3 -5.2
v 3.1 5.4 -2.6
v 3.1 5.4 -2.7
v 3.1 5.4 -3.3
v 3.1 5.4 -3.4
v 3.1 5.5 -2.6
v 3.1 5.5 -2.7
v 3.1 5.5 -3.3
v 3.1 5.5 -3.4
v 3.2 2.1 -2.5
v 3.2 2.1 -2.7
v 3.2 2.1 -3.3
v 3.2 2.1 -3.5
v 3.2 2.2 -2.5
v 3.2 2.2 -2.7
v 3.2 2.2 -3.3
v 3.2 2.2 -3.5
v 3.2 5.1 -0.8
v 3.2 5.1 -1.7
v 3.2 5.1 -4.3
v 3.2 5.1 -5.2
v 3.2 5.2 -1
v 3.2 5.2 -1.7
v 3.2 5.2 -4.3
v 3.2 5.2 -5
v 3.2 5.3 -0.8
v 3.2 5.3 -1
v 3.2 5.3 -5
v 3.2 5.3 -5.2
v 3.2 5.5 -2.8
v 3.2 5.5 -2.9
v 3.2 5.5 -3.1
v 3.2 5.5 -3.2
v 3.2 5.6 -2.8
v 3.2 5.6 -2.9
v 3.2 5.6 -3.1
v 3.2 5.6 -3.2
v 3.3 2.2 -2.4
v 3.3 2.2 -2.8
v 3.3 2.2 -3.2
v 3.3 2.2 -3.6
v 3.3 3.5 -2.8
v 3.3 3.5 -3.2
v 3.3 3.8 -2.4
v 3.3 3.8 -3.6
v 3.3 5 -1.7
v 3.3 5 -2.4
v 3.3 5 -3.6
v 3.3 5 -4.3
v 3.3 5.3 -1.7
v 3.3 5.3 -2.4
v 3.3 5.3 -3.6
v 3.3 5.3 -4.3
v 3.3 5.4 -2.7
v 3.3 5.4 -2.8
v 3.3 5.4 -2.9
v 3.3 5.4 -3.1
v 3.3 5.4 -3.2
v 3.3 5.4 -3.3
v 3.3 5.5 -2.7
v 3.3 5.5 -2.8
v 3.3 5.5 -2.9
v 3.3 5.5 -3.1
v 3.3 5.5 -3.2
v 3.3 5.5 -3.3
v 3.3 5.6 -2.8
v 3.3 5.6 -2.9
v 3.3 5.6 -3.1
v 3.3 5.6 -3.2
v 3.3 5.7 -2.8
v 3.3 5.7 -2.9
v 3.3 5.7 -3.1
v 3.3 5.7 -3.2
v 3.3 6.3 -2.8
v 3.3 6.3 -3.2
v 3.3 6.4 -2.8
v 3.3 6.4 -3.2
v 3.4 3.8 -2.4
v 3.4 3.8 -3.6
v 3.4 5.4 -2.4
v 3.4 5.4 -2.8
v 3.4 5.4 -2.9
v 3.4 5.4 -3.1
v 3.4 5.4 -3.2
v 3.4 5.4 -3.6
v 3.4 5.5 -2.8
v 3.4 5.5 -2.9
v 3.4 5.5 -3.1
v 3.4 5.5 -3.2
v 3.4 5.6 -2.9
v 3.4 5.6 -3.1
v 3.4 5.7 -2.7
v 3.4 5.7 -2.9
v 3.4 5.7 -3.1
v 3.4 5.7 -3.3
v 3.4 5.8 -2.9
v 3.4 5.8 -3.1
v 3.4 5.9 -2.9
v 3.4 5.9 -3.1
v 3.4 6 -2.6
v 3.4 6 -2.7
v 3.4 6 -3.3
v 3.4 6 -3.4
v 3.4 6.2 -2.6
v 3.4 6.2 -2.7
v 3.4 6.2 -3.3
v 3.4 6.2 -3.4
v 3.4 6.3 -2.7
v 3.4 6.3 -3.3
v 3.5 5.8 -2.9
v 3.5 5.8 -3.1
v 3.5 5.9 -2.9
v 3.5 5.9 -3.1
v 3.6 2 -2.4
v 3.6 2 -2.8
v 3.6 2 -3.2
v 3.6 2 -3.6
v 3.6 2.1 -2.4
v 3.6 2.1 -2.8
v 3.6 2.1 -3.2
v 3.6 2.1 -3.6
v 3 5.1 -0.8
v 3 5.3 -0.8
v 3.2 5.1 -0.8
v 3.2 5.3 -0.8
v 2.9 5 -1.7
v 2.9 5.3 -1.7
v 3 5.1 -1.7
v 3 5.2 -1.7
v 3.2 5.1 -1.7
v 3.2 5.2 -1.7
v 3.3 5 -1.7
v 3.3 5.3 -1.7
v 2.8 3.8 -2.4
v 2.8 5.4 -2.4
v 2.9 2.2 -2.4
v 2.9 3.8 -2.4
v 2.9 3.9 -2.4
v 2.9 5 -2.4
v 2.9 5.3 -2.4
v 3 2 -2.4
v 3 2.1 -2.4
v 3.3 2.2 -2.4
v 3.3 3.8 -2.4
v 3.3 3.9 -2.4
v 3.3 5 -2.4
v 3.3 5.3 -2.4
v 3.4 3.8 -2.4
v 3.4 5.4 -2.4
v 3.6 2 -2.4
v 3.6 2.1 -2.4
v 3 2.1 -2.5
v 3 2.2 -2.5
v 3.2 2.1 -2.5
v 3.2 2.2 -2.5
v 2.7 6 -2.6
v 2.7 6.2 -2.6
v 2.8 5.4 -2.6
v 2.8 5.5 -2.6
v 3.1 5.4 -2.6
v 3.1 5.5 -2.6
v 3.4 6 -2.6
v 3.4 6.2 -2.6
v 2.6 6 -2.7
v 2.6 6.2 -2.7
v 2.7 6 -2.7
v 2.7 6.2 -2.7
v 2.8 5.7 -2.7
v 2.8 6 -2.7
v 2.8 6.2 -2.7
v 2.8 6.3 -2.7
v 3.1 5.4 -2.7
v 3.1 5.5 -2.7
v 3.3 5.4 -2.7
v 3.3 5.5 -2.7
v 3.4 5.7 -2.7
v 3.4 6 -2.7
v 3.4 6.2 -2.7
v 3.4 6.3 -2.7
v 2.7 5.8 -2.8
v 2.7 6 -2.8
v 2.8 5.8 -2.8
v 2.8 6 -2.8
v 2.9 5.5 -2.8
v 2.9 5.7 -2.8
v 2.9 6.3 -2.8
v 2.9 6.4 -2.8
v 3.2 5.5 -2.8
v 3.2 5.6 -2.8
v 3.3 5.4 -2.8
v 3.3 5.5 -2.8
v 3.3 5.6 -2.8
v 3.3 5.7 -2.8
v 3.3 6.3 -2.8
v 3.3 6.4 -2.8
v 3.4 5.4 -2.8
v 3.4 5.5 -2.8
v 3.2 5.5 -2.9
v 3.2 5.6 -2.9
v 3.3 5.5 -2.9
v 3.3 5.6 -2.9
v 3.3 5.7 -2.9
v 3.4 5.6 -2.9
v 3.4 5.7 -2.9
v 3.4 5.8 -2.9
v 3.4 5.9 -2.9
v 3.5 5.8 -2.9
v 3.5 5.9 -2.9
v 3.3 5.4 -3.1
v 3.3 5.5 -3.1
v 3.4 5.4 -3.1
v 3.4 5.5 -3.1
v 2.9 2.2 -3.2
v 2.9 3.5 -3.2
v 3 2 -3.2
v 3 2.1 -3.2
v 3.3 2.2 -3.2
v 3.3 3.5 -3.2
v 3.6 2 -3.2
v 3.6 2.1 -3.2
v 3 2.1 -3.3
v 3 2.2 -3.3
v 3.2 2.1 -3.3
v 3.2 2.2 -3.3
v 3 5.2 -5
v 3 5.3 -5
v 3.2 5.2 -5
v 3.2 5.3 -5
v 3 5.2 -1
v 3 5.3 -1
v 3.2 5.2 -1
v 3.2 5.3 -1
v 3 2.1 -2.7
v 3 2.2 -2.7
v 3.2 2.1 -2.7
v 3.2 2.2 -2.7
v 2.9 2.2 -2.8
v 2.9 3.5 -2.8
v 3 2 -2.8
v 3 2.1 -2.8
v 3.3 2.2 -2.8
v 3.3 3.5 -2.8
v 3.6 2 -2.8
v 3.6 2.1 -2.8
v 3.3 5.4 -2.9
v 3.3 5.5 -2.9
v 3.4 5.4 -2.9
v 3.4 5.5 -2.9
v 3.2 5.5 -3.1
v 3.2 5.6 -3.1
v 3.3 5.5 -3.1
v 3.3 5.6 -3.1
v 3.3 5.7 -3.1
v 3.4 5.6 -3.1
v 3.4 5.7 -3.1
v 3.4 5.8 -3.1
v 3.4 5.9 -3.1
v 3.5 5.8 -3.1
v 3.5 5.9 -3.1
v 2.7 5.8 -3.2
v 2.7 6 -3.2
v 2.8 5.8 -3.2
v 2.8 6 -3.2
v 2.9 5.5 -3.2
v 2.9 5.7 -3.2
v 2.9 6.3 -3.2
v 2.9 6.4 -3.2
v 3.2 5.5 -3.2
v 3.2 5.6 -3.2
v 3.3 5.4 -3.2
v 3.3 5.5 -3.2
v 3.3 5.6 -3.2
v 3.3 5.7 -3.2
v 3.3 6.3 -3.2
v 3.3 6.4 -3.2
v 3.4 5.4 -3.2
v 3.4 5.5 -3.2
v 2.6 6 -3.3
v 2.6 6.2 -3.3
v 2.7 6 -3.3
v 2.7 6.2 -3.3
v 2.8 5.7 -3.3
v 2.8 6 -3.3
v 2.8 6.2 -3.3
v 2.8 6.3 -3.3
v 3.1 5.4 -3.3
v 3.1 5.5 -3.3
v 3.3 5.4 -3.3
v 3.3 5.5 -3.3
v 3.4 5.7 -3.3
v 3.4 6 -3.3
v 3.4 6.2 -3.3
v 3.4 6.3 -3.3
v 2.7 6 -3.4
v 2.7 6.2 -3.4
v 2.8 5.4 -3.4
v 2.8 5.5 -3.4
v 3.1 5.4 -3.4
v 3.1 5.5 -3.4
v 3.4 6 -3.4
v 3.4 6.2 -3.4
v 3 2.1 -3.5
v 3 2.2 -3.5
v 3.2 2.1 -3.5
v 3.2 2.2 -3.5
v 2.8 3.8 -3.6
v 2.8 5.4 -3.6
v 2.9 2.2 -3.6
v 2.9 3.8 -3.6
v 2.9 3.9 -3.6
v 2.9 5 -3.6
v 2.9 5.3 -3.6
v 3 2 -3.6
v 3 2.1 -3.6
v 3.3 2.2 -3.6
v 3.3 3.8 -3.6
v 3.3 3.9 -3.6
v 3.3 5 -3.6
v 3.3 5.3 -3.6
v 3.4 3.8 -3.6
v 3.4 5.4 -3.6
v 3.6 2 -3.6
v 3.6 2.1 -3.6
v 2.9 5 -4.3
v 2.9 5.3 -4.3
v 3 5.1 -4.3
v 3 5.2 -4.3
v 3.2 5.1 -4.3
v 3.2 5.2 -4.3
v 3.3 5 -4.3
v 3.3 5.3 -4.3
v 3 5.1 -5.2
v 3 5.3 -5.2
v 3.2 5.1 -5.2
v 3.2 5.3 -5.2
v 3 2 -2.4
v 3.6 2 -2.4
v 3 2 -2.8
v 3.6 2 -2.8
v 3 2 -3.2
v 3.6 2 -3.2
v 3 2 -3.6
v 3.6 2 -3.6
v 2.9 2.2 -2.4
v 3.3 2.2 -2.4
v 3 2.2 -2.5
v 3.2 2.2 -2.5
v 3 2.2 -2.7
v 3.2 2.2 -2.7
v 2.9 2.2 -2.8
v 3.3 2.2 -2.8
v 2.9 2.2 -3.2
v 3.3 2.2 -3.2
v 3 2.2 -3.3
v 3.2 2.2 -3.3
v 3 2.2 -3.5
v 3.2 2.2 -3.5
v 2.9 2.2 -3.6
v 3.3 2.2 -3.6
v 2.9 3.5 -2.8
v 3.3 3.5 -2.8
v 2.9 3.5 -3.2
v 3.3 3.5 -3.2
v 2.8 3.8 -2.4
v 2.9 3.8 -2.4
v 3.3 3.8 -2.4
v 3.4 3.8 -2.4
v 2.8 3.8 -3.6
v 2.9 3.8 -3.6
v 3.3 3.8 -3.6
v 3.4 3.8 -3.6
v 2.9 5 -1.7
v 3.3 5 -1.7
v 2.9 5 -2.4
v 3.3 5 -2.4
v 2.9 5 -3.6
v 3.3 5 -3.6
v 2.9 5 -4.3
v 3.3 5 -4.3
v 3 5.1 -0.8
v 3.2 5.1 -0.8
v 3 5.1 -1.7
v 3.2 5.1 -1.7
v 3 5.1 -4.3
v 3.2 5.1 -4.3
v 3 5.1 -5.2
v 3.2 5.1 -5.2
v 3.2 5.6 -2.8
v 3.3 5.6 -2.8
v 3.2 5.6 -2.9
v 3.3 5.6 -2.9
v 3.4 5.6 -2.9
v 3.2 5.6 -3.1
v 3.3 5.6 -3.1
v 3.4 5.6 -3.1
v 3.2 5.6 -3.2
v 3.3 5.6 -3.2
v 2.8 5.7 -2.7
v 3.4 5.7 -2.7
v 2.9 5.7 -2.8
v 3.3 5.7 -2.8
v 3.3 5.7 -2.9
v 3.4 5.7 -2.9
v 3.3 5.7 -3.1
v 3.4 5.7 -3.1
v 2.9 5.7 -3.2
v 3.3 5.7 -3.2
v 2.8 5.7 -3.3
v 3.4 5.7 -3.3
v 2.7 5.8 -2.8
v 2.8 5.8 -2.8
v 3.4 5.8 -2.9
v 3.5 5.8 -2.9
v 3.4 5.8 -3.1
v 3.5 5.8 -3.1
v 2.7 5.8 -3.2
v 2.8 5.8 -3.2
v 2.7 6 -2.6
v 3.4 6 -2.6
v 2.6 6 -2.7
v 2.7 6 -2.7
v 2.8 6 -2.7
v 3.4 6 -2.7
v 2.7 6 -2.8
v 2.8 6 -2.8
v 2.7 6 -3.2
v 2.8 6 -3.2
v 2.6 6 -3.3
v 2.7 6 -3.3
v 2.8 6 -3.3
v 3.4 6 -3.3
v 2.7 6 -3.4
v 3.4 6 -3.4
v 3 2.1 -2.4
v 3.6 2.1 -2.4
v 3 2.1 -2.5
v 3.2 2.1 -2.5
v 3 2.1 -2.7
v 3.2 2.1 -2.7
v 3 2.1 -2.8
v 3.6 2.1 -2.8
v 3 2.1 -3.2
v 3.6 2.1 -3.2
v 3 2.1 -3.3
v 3.2 2.1 -3.3
v 3 2.1 -3.5
v 3.2 2.1 -3.5
v 3 2.1 -3.6
v 3.6 2.1 -3.6
v 3 5.2 -1
v 3.2 5.2 -1
v 3 5.2 -1.7
v 3.2 5.2 -1.7
v 3 5.2 -4.3
v 3.2 5.2 -4.3
v 3 5.2 -5
v 3.2 5.2 -5
v 3 5.3 -0.8
v 3.2 5.3 -0.8
v 3 5.3 -1
v 3.2 5.3 -1
v 2.9 5.3 -1.7
v 3.3 5.3 -1.7
v 2.9 5.3 -2.4
v 3.3 5.3 -2.4
v 2.9 5.3 -3.6
v 3.3 5.3 -3.6
v 2.9 5.3 -4.3
v 3.3 5.3 -4.3
v 3 5.3 -5
v 3.2 5.3 -5
v 3 5.3 -5.2
v 3.2 5.3 -5.2
v 2.8 5.4 -2.4
v 3.4 5.4 -2.4
v 2.8 5.4 -2.6
v 3.1 5.4 -2.6
v 3.1 5.4 -2.7
v 3.3 5.4 -2.7
v 3.3 5.4 -2.8
v 3.4 5.4 -2.8
v 3.3 5.4 -2.9
v 3.4 5.4 -2.9
v 3.3 5.4 -3.1
v 3.4 5.4 -3.1
v 3.3 5.4 -3.2
v 3.4 5.4 -3.2
v 3.1 5.4 -3.3
v 3.3 5.4 -3.3
v 2.8 5.4 -3.4
v 3.1 5.4 -3.4
v 2.8 5.4 -3.6
v 3.4 5.4 -3.6
v 2.8 5.5 -2.6
v 3.1 5.5 -2.6
v 3.1 5.5 -2.7
v 3.3 5.5 -2.7
v 2.9 5.5 -2.8
v 3.2 5.5 -2.8
v 3.3 5.5 -2.8
v 3.4 5.5 -2.8
v 3.2 5.5 -2.9
v 3.3 5.5 -2.9
v 3.4 5.5 -2.9
v 3.2 5.5 -3.1
v 3.3 5.5 -3.1
v 3.4 5.5 -3.1
v 2.9 5.5 -3.2
v 3.2 5.5 -3.2
v 3.3 5.5 -3.2
v 3.4 5.5 -3.2
v 3.1 5.5 -3.3
v 3.3 5.5 -3.3
v 2.8 5.5 -3.4
v 3.1 5.5 -3.4
v 3.4 5.9 -2.9
v 3.5 5.9 -2.9
v 3.4 5.9 -3.1
v 3.5 5.9 -3.1
v 2.7 6.2 -2.6
v 3.4 6.2 -2.6
v 2.6 6.2 -2.7
v 2.7 6.2 -2.7
v 2.8 6.2 -2.7
v 3.4 6.2 -2.7
v 2.6 6.2 -3.3
v 2.7 6.2 -3.3
v 2.8 6.2 -3.3
v 3.4 6.2 -3.3
v 2.7 6.2 -3.4
v 3.4 6.2 -3.4
v 2.8 6.3 -2.7
v 3.4 6.3 -2.7
v 2.9 6.3 -2.8
v 3.3 6.3 -2.8
v 2.9 6.3 -3.2
v 3.3 6.3 -3.2
v 2.8 6.3 -3.3
v 3.4 6.3 -3.3
v 2.9 6.4 -2.8
v 3.3 6.4 -2.8
v 2.9 6.4 -3.2
v 3.3 6.4 -3.2

# faces
f 3/3/1 2/3/1 1/3/1
f 4/3/1 2/3/1 3/3/1
f 9/4/1 6/4/1 5/4/1
f 10/4/1 6/4/1 9/4/1
f 13/3/1 8/3/1 7/3/1
f 14/3/1 8/3/1 13/3/1
f 15/3/1 12/3/1 11/3/1
f 16/3/1 12/3/1 15/3/1
f 19/1/1 18/1/1 17/1/1
f 20/1/1 18/1/1 19/1/1
f 21/1/1 18/1/1 20/1/1
f 22/1/1 18/1/1 21/1/1
f 23/2/1 21/2/1 20/2/1
f 24/2/1 21/2/1 23/2/1
f 27/4/1 26/4/1 25/4/1
f 28/4/1 26/4/1 27/4/1
f 29/4/1 27/4/1 25/4/1
f 30/4/1 27/4/1 29/4/1
f 31/4/1 26/4/1 28/4/1
f 32/4/1 26/4/1 31/4/1
f 35/4/1 34/4/1 33/4/1
f 36/4/1 34/4/1 35/4/1
f 41/2/1 38/2/1 37/2/1
f 42/2/1 40/2/1 39/2/1
f 43/2/1 41/2/1 37/2/1
f 43/2/1 42/2/1 41/2/1
f 44/2/1 40/2/1 42/2/1
f 44/2/1 42/2/1 43/2/1
f 49/1/1 46/1/1 45/1/1
f 50/1/1 46/1/1 49/1/1
f 51/1/1 48/1/1 47/1/1
f 52/1/1 48/1/1 51/1/1
f 55/4/1 54/4/1 53/4/1
f 56/4/1 54/4/1 55/4/1
f 59/4/1 58/4/1 57/4/1
f 60/4/1 58/4/1 59/4/1
f 65/4/1 62/4/1 61/4/1
f 66/4/1 62/4/1 65/4/1
f 67/4/1 62/4/1 66/4/1
f 68/4/1 62/4/1 67/4/1
f 69/4/1 64/4/1 63/4/1
f 70/4/1 64/4/1 69/4/1
f 71/4/1 64/4/1 70/4/1
f 72/4/1 64/4/1 71/4/1
f 73/4/1 67/4/1 66/4/1
f 74/4/1 67/4/1 73/4/1
f 75/4/1 71/4/1 70/4/1
f 76/4/1 71/4/1 75/4/1
f 81/4/1 78/4/1 77/4/1
f 82/4/1 78/4/1 81/4/1
f 83/4/1 80/4/1 79/4/1
f 84/4/1 80/4/1 83/4/1
f 85/4/1 81/4/1 77/4/1
f 86/4/1 81/4/1 85/4/1
f 87/4/1 80/4/1 84/4/1
f 88/4/1 80/4/1 87/4/1
f 89/2/2 90/2/2 93/2/2
f 93/2/2 90/2/2 94/2/2
f 91/2/2 92/2/2 95/2/2
f 95/2/2 92/2/2 96/2/2
f 97/4/2 98/4/2 101/4/2
f 101/4/2 98/4/2 102/4/2
f 99/4/2 100/4/2 103/4/2
f 103/4/2 100/4/2 104/4/2
f 105/4/2 106/4/2 109/4/2
f 109/4/2 106/4/2 110/4/2
f 107/4/2 108/4/2 111/4/2
f 111/4/2 108/4/2 112/4/2
f 105/4/2 109/4/2 113/4/2
f 113/4/2 109/4/2 114/4/2
f 112/4/2 108/4/2 115/4/2
f 115/4/2 108/4/2 116/4/2
f 117/4/2 118/4/2 121/4/2
f 121/4/2 118/4/2 122/4/2
f 119/4/2 120/4/2 123/4/2
f 123/4/2 120/4/2 124/4/2
f 125/2/2 126/2/2 129/2/2
f 127/2/2 128/2/2 130/2/2
f 125/2/2 129/2/2 131/2/2
f 129/2/2 130/2/2 131/2/2
f 130/2/2 128/2/2 132/2/2
f 131/2/2 130/2/2 132/2/2
f 133/1/2 134/1/2 137/1/2
f 137/1/2 134/1/2 138/1/2
f 135/1/2 136/1/2 139/1/2
f 139/1/2 136/1/2 140/1/2
f 141/2/2 142/2/2 147/2/2
f 147/2/2 142/2/2 148/2/2
f 143/4/2 144/4/2 149/4/2
f 149/4/2 144/4/2 150/4/2
f 145/2/2 146/2/2 151/2/2
f 151/2/2 146/2/2 152/2/2
f 149/4/2 150/4/2 154/4/2
f 154/4/2 150/4/2 155/4/2
f 153/4/2 154/4/2 157/4/2
f 157/4/2 154/4/2 158/4/2
f 155/4/2 156/4/2 159/4/2
f 159/4/2 156/4/2 160/4/2
f 161/4/2 162/4/2 163/4/2
f 163/4/2 162/4/2 164/4/2
f 165/1/2 166/1/2 167/1/2
f 167/1/2 166/1/2 168/1/2
f 168/1/2 166/1/2 169/1/2
f 169/1/2 166/1/2 170/1/2
f 170/1/2 166/1/2 171/1/2
f 171/1/2 166/1/2 172/1/2
f 168/2/2 169/2/2 173/2/2
f 173/2/2 169/2/2 174/2/2
f 170/2/2 171/2/2 175/2/2
f 175/2/2 171/2/2 176/2/2
f 177/4/2 178/4/2 180/4/2
f 180/4/2 178/4/2 181/4/2
f 180/4/2 181/4/2 183/4/2
f 181/4/2 182/4/2 183/4/2
f 179/4/2 180/4/2 183/4/2
f 183/4/2 182/4/2 184/4/2
f 179/4/2 183/4/2 185/4/2
f 184/4/2 182/4/2 186/4/2
f 179/4/2 185/4/2 188/4/2
f 185/4/2 186/4/2 188/4/2
f 186/4/2 182/4/2 189/4/2
f 188/4/2 186/4/2 189/4/2
f 187/3/2 188/3/2 191/3/2
f 188/4/2 189/4/2 192/4/2
f 191/3/2 188/3/2 192/3/2
f 189/3/2 190/3/2 193/3/2
f 192/4/2 189/4/2 193/4/2
f 193/3/2 190/3/2 194/3/2
f 192/4/2 193/4/2 195/4/2
f 195/4/2 193/4/2 196/4/2
f 197/4/2 198/4/2 199/4/2
f 199/4/2 198/4/2 200/4/2
f 201/4/2 202/4/2 205/4/2
f 205/4/2 202/4/2 206/4/2
f 203/4/2 204/4/2 207/4/2
f 207/4/2 204/4/2 208/4/2
f 211/4/3 210/4/3 209/4/3
f 212/4/3 210/4/3 211/4/3
f 215/1/3 214/1/3 213/1/3
f 216/1/3 214/1/3 215/1/3
f 217/1/3 215/1/3 213/1/3
f 218/1/3 214/1/3 216/1/3
f 219/1/3 217/1/3 213/1/3
f 219/1/3 218/1/3 217/1/3
f 220/1/3 214/1/3 218/1/3
f 220/1/3 218/1/3 219/1/3
f 224/1/3 222/1/3 221/1/3
f 225/1/3 222/1/3 224/1/3
f 226/1/3 222/1/3 225/1/3
f 227/1/3 222/1/3 226/1/3
f 230/2/3 224/2/3 223/2/3
f 230/2/3 225/2/3 224/2/3
f 231/2/3 225/2/3 230/2/3
f 232/1/3 226/1/3 225/1/3
f 232/2/3 225/2/3 231/2/3
f 233/1/3 226/1/3 232/1/3
f 234/1/3 222/1/3 227/1/3
f 235/1/3 233/1/3 232/1/3
f 235/1/3 234/1/3 233/1/3
f 235/1/3 232/1/3 231/1/3
f 236/1/3 222/1/3 234/1/3
f 236/1/3 234/1/3 235/1/3
f 237/4/3 229/4/3 228/4/3
f 238/4/3 229/4/3 237/4/3
f 241/4/3 240/4/3 239/4/3
f 242/4/3 240/4/3 241/4/3
f 247/2/3 246/2/3 245/2/3
f 248/2/3 246/2/3 247/2/3
f 249/3/3 244/3/3 243/3/3
f 250/3/3 244/3/3 249/3/3
f 253/3/3 252/3/3 251/3/3
f 254/3/3 252/3/3 253/3/3
f 261/2/3 260/2/3 259/2/3
f 262/2/3 260/2/3 261/2/3
f 263/4/3 256/4/3 255/4/3
f 264/4/3 256/4/3 263/4/3
f 265/4/3 258/4/3 257/4/3
f 266/4/3 258/4/3 265/4/3
f 269/4/3 268/4/3 267/4/3
f 270/4/3 268/4/3 269/4/3
f 275/4/3 272/4/3 271/4/3
f 276/4/3 272/4/3 275/4/3
f 279/4/3 272/4/3 276/4/3
f 280/4/3 272/4/3 279/4/3
f 281/4/3 274/4/3 273/4/3
f 282/4/3 274/4/3 281/4/3
f 283/2/3 278/2/3 277/2/3
f 284/2/3 278/2/3 283/2/3
f 287/4/3 286/4/3 285/4/3
f 288/4/3 286/4/3 287/4/3
f 290/4/3 289/4/3 288/4/3
f 291/4/3 289/4/3 290/4/3
f 294/4/3 293/4/3 292/4/3
f 295/4/3 293/4/3 294/4/3
f 298/2/3 297/2/3 296/2/3
f 299/2/3 297/2/3 298/2/3
f 304/2/3 301/2/3 300/2/3
f 305/2/3 301/2/3 304/2/3
f 306/4/3 303/4/3 302/4/3
f 307/4/3 303/4/3 306/4/3
f 310/4/3 309/4/3 308/4/3
f 311/4/3 309/4/3 310/4/3
f 314/4/3 313/4/3 312/4/3
f 315/4/3 313/4/3 314/4/3
f 316/4/4 317/4/4 318/4/4
f 318/4/4 317/4/4 319/4/4
f 320/4/4 321/4/4 322/4/4
f 322/4/4 321/4/4 323/4/4
f 324/2/4 325/2/4 328/2/4
f 328/2/4 325/2/4 329/2/4
f 326/4/4 327/4/4 330/4/4
f 330/4/4 327/4/4 331/4/4
f 332/2/4 333/2/4 334/2/4
f 334/2/4 333/2/4 335/2/4
f 336/4/4 337/4/4 338/4/4
f 338/4/4 337/4/4 339/4/4
f 339/4/4 340/4/4 341/4/4
f 341/4/4 340/4/4 342/4/4
f 343/4/4 344/4/4 345/4/4
f 345/4/4 344/4/4 346/4/4
f 347/4/4 348/4/4 349/4/4
f 349/4/4 348/4/4 350/4/4
f 351/4/4 352/4/4 355/4/4
f 355/4/4 352/4/4 356/4/4
f 356/4/4 352/4/4 359/4/4
f 359/4/4 352/4/4 360/4/4
f 353/4/4 354/4/4 361/4/4
f 361/4/4 354/4/4 362/4/4
f 357/2/4 358/2/4 363/2/4
f 363/2/4 358/2/4 364/2/4
f 365/3/4 366/3/4 367/3/4
f 367/3/4 366/3/4 368/3/4
f 373/2/4 374/2/4 375/2/4
f 375/2/4 374/2/4 376/2/4
f 369/4/4 370/4/4 377/4/4
f 377/4/4 370/4/4 378/4/4
f 371/4/4 372/4/4 379/4/4
f 379/4/4 372/4/4 380/4/4
f 383/2/4 384/2/4 385/2/4
f 385/2/4 384/2/4 386/2/4
f 381/3/4 382/3/4 387/3/4
f 387/3/4 382/3/4 388/3/4
f 389/4/4 390/4/4 391/4/4
f 391/4/4 390/4/4 392/4/4
f 393/1/4 394/1/4 396/1/4
f 396/1/4 394/1/4 397/1/4
f 397/1/4 394/1/4 398/1/4
f 398/1/4 394/1/4 399/1/4
f 395/2/4 396/2/4 402/2/4
f 396/2/4 397/2/4 402/2/4
f 402/2/4 397/2/4 403/2/4
f 397/1/4 398/1/4 404/1/4
f 403/2/4 397/2/4 404/2/4
f 404/1/4 398/1/4 405/1/4
f 399/1/4 394/1/4 406/1/4
f 404/1/4 405/1/4 407/1/4
f 405/1/4 406/1/4 407/1/4
f 403/1/4 404/1/4 407/1/4
f 406/1/4 394/1/4 408/1/4
f 407/1/4 406/1/4 408/1/4
f 400/4/4 401/4/4 409/4/4
f 409/4/4 401/4/4 410/4/4
f 411/1/4 412/1/4 413/1/4
f 413/1/4 412/1/4 414/1/4
f 411/1/4 413/1/4 415/1/4
f 414/1/4 412/1/4 416/1/4
f 411/1/4 415/1/4 417/1/4
f 415/1/4 416/1/4 417/1/4
f 416/1/4 412/1/4 418/1/4
f 417/1/4 416/1/4 418/1/4
f 419/4/4 420/4/4 421/4/4
f 421/4/4 420/4/4 422/4/4
f 425/4/5 424/4/5 423/4/5
f 426/4/5 424/4/5 425/4/5
f 429/4/5 428/4/5 427/4/5
f 430/4/5 428/4/5 429/4/5
f 433/2/5 432/2/5 431/2/5
f 434/2/5 432/2/5 433/2/5
f 435/2/5 433/2/5 431/2/5
f 436/2/5 432/2/5 434/2/5
f 437/2/5 435/2/5 431/2/5
f 437/2/5 436/2/5 435/2/5
f 438/2/5 432/2/5 436/2/5
f 438/2/5 436/2/5 437/2/5
f 441/2/5 440/2/5 439/2/5
f 442/2/5 440/2/5 441/2/5
f 443/2/5 441/2/5 439/2/5
f 444/2/5 440/2/5 442/2/5
f 445/2/5 443/2/5 439/2/5
f 445/2/5 444/2/5 443/2/5
f 446/2/5 440/2/5 444/2/5
f 446/2/5 444/2/5 445/2/5
f 449/2/5 448/2/5 447/2/5
f 450/2/5 448/2/5 449/2/5
f 455/1/5 452/1/5 451/1/5
f 456/1/5 452/1/5 455/1/5
f 457/1/5 454/1/5 453/1/5
f 458/1/5 454/1/5 457/1/5
f 461/1/5 460/1/5 459/1/5
f 462/1/5 460/1/5 461/1/5
f 465/1/5 464/1/5 463/1/5
f 466/1/5 464/1/5 465/1/5
f 469/4/5 468/4/5 467/4/5
f 470/4/5 468/4/5 469/4/5
f 473/4/5 472/4/5 471/4/5
f 474/4/5 472/4/5 473/4/5
f 477/4/5 476/4/5 475/4/5
f 478/4/5 476/4/5 477/4/5
f 481/4/5 479/4/5 478/4/5
f 482/4/5 479/4/5 481/4/5
f 483/4/5 481/4/5 480/4/5
f 484/4/5 481/4/5 483/4/5
f 487/4/5 486/4/5 485/4/5
f 488/4/5 486/4/5 487/4/5
f 489/4/5 486/4/5 488/4/5
f 490/4/5 486/4/5 489/4/5
f 493/4/5 487/4/5 485/4/5
f 494/4/5 492/4/5 491/4/5
f 495/4/5 493/4/5 485/4/5
f 495/4/5 494/4/5 493/4/5
f 496/4/5 492/4/5 494/4/5
f 496/4/5 494/4/5 495/4/5
f 501/4/5 500/4/5 499/4/5
f 502/4/5 500/4/5 501/4/5
f 503/4/5 498/4/5 497/4/5
f 504/4/5 498/4/5 503/4/5
f 508/3/5 506/3/5 505/3/5
f 509/3/5 506/3/5 508/3/5
f 510/3/5 506/3/5 509/3/5
f 511/3/5 508/3/5 507/3/5
f 511/3/5 509/3/5 508/3/5
f 512/3/5 509/3/5 511/3/5
f 513/3/5 511/3/5 507/3/5
f 515/3/5 513/3/5 507/3/5
f 515/3/5 514/3/5 513/3/5
f 516/3/5 514/3/5 515/3/5
f 517/3/5 514/3/5 516/3/5
f 519/3/5 517/3/5 516/3/5
f 519/3/5 518/3/5 517/3/5
f 520/3/5 518/3/5 519/3/5
f 521/4/6 522/4/6 523/4/6
f 523/4/6 522/4/6 524/4/6
f 524/4/6 522/4/6 526/4/6
f 525/4/6 526/4/6 527/4/6
f 526/4/6 522/4/6 528/4/6
f 527/4/6 526/4/6 528/4/6
f 529/4/6 530/4/6 531/4/6
f 531/4/6 530/4/6 532/4/6
f 532/4/6 530/4/6 534/4/6
f 533/4/6 534/4/6 535/4/6
f 534/4/6 530/4/6 536/4/6
f 535/4/6 534/4/6 536/4/6
f 537/4/6 538/4/6 539/4/6
f 539/4/6 538/4/6 540/4/6
f 541/4/6 542/4/6 543/4/6
f 543/4/6 542/4/6 544/4/6
f 545/4/6 546/4/6 547/4/6
f 547/4/6 546/4/6 548/4/6
f 549/1/6 550/1/6 551/1/6
f 551/1/6 550/1/6 552/1/6
f 553/1/6 554/1/6 555/1/6
f 555/1/6 554/1/6 556/1/6
f 557/4/6 558/4/6 559/4/6
f 559/4/6 558/4/6 560/4/6
f 561/1/6 562/1/6 563/1/6
f 563/1/6 562/1/6 564/1/6
f 564/1/6 562/1/6 565/1/6
f 565/1/6 562/1/6 566/1/6
f 566/1/6 562/1/6 567/1/6
f 567/1/6 562/1/6 568/1/6
f 569/1/6 570/1/6 571/1/6
f 571/1/6 570/1/6 572/1/6
f 573/1/6 574/1/6 576/1/6
f 575/1/6 576/1/6 578/1/6
f 577/1/6 578/1/6 579/1/6
f 576/1/6 574/1/6 580/1/6
f 579/1/6 578/1/6 580/1/6
f 578/1/6 576/1/6 580/1/6
f 581/2/6 582/2/6 583/2/6
f 581/2/6 583/2/6 585/2/6
f 583/2/6 584/2/6 585/2/6
f 585/2/6 584/2/6 586/2/6
f 586/2/6 584/2/6 587/2/6
f 587/2/6 588/2/6 589/2/6
f 586/2/6 587/2/6 589/2/6
f 589/2/6 588/2/6 590/2/6
f 590/2/6 588/2/6 591/2/6
f 581/2/6 585/2/6 595/2/6
f 593/2/6 594/2/6 596/2/6
f 592/2/6 593/2/6 596/2/6
f 596/2/6 594/2/6 597/2/6
f 597/2/6 594/2/6 598/2/6
f 595/2/6 596/2/6 599/2/6
f 596/2/6 597/2/6 599/2/6
f 599/2/6 597/2/6 600/2/6
f 581/2/6 595/2/6 601/2/6
f 595/2/6 599/2/6 601/2/6
f 601/2/6 599/2/6 602/2/6
f 603/4/6 604/4/6 605/4/6
f 605/4/6 604/4/6 606/4/6
f 607/3/6 608/3/6 610/3/6
f 610/3/6 608/3/6 611/3/6
f 611/3/6 608/3/6 612/3/6
f 609/3/6 610/3/6 613/3/6
f 610/3/6 611/3/6 613/3/6
f 613/3/6 611/3/6 614/3/6
f 614/3/6 611/3/6 615/3/6
f 615/3/6 616/3/6 617/3/6
f 614/3/6 615/3/6 617/3/6
f 617/3/6 616/3/6 618/3/6
f 619/4/6 620/4/6 621/4/6
f 621/4/6 620/4/6 622/4/6
f 619/4/6 621/4/6 623/4/6
f 622/4/6 620/4/6 624/4/6
f 619/4/6 623/4/6 625/4/6
f 623/4/6 624/4/6 625/4/6
f 624/4/6 620/4/6 626/4/6
f 625/4/6 624/4/6 626/4/6
f 627/4/6 628/4/6 629/4/6
f 629/4/6 628/4/6 630/4/6
