# MagicaVoxel @ Ephtracy

# group
o 

# material
mtllib L_2.mtl
usemtl palette

# normals
vn -1 0 0
vn 1 0 0
vn 0 0 1
vn 0 0 -1
vn 0 -1 0
vn 0 1 0

# texcoords
vt 0.00976563 0.5
vt 0.0644531 0.5
vt 0.0683594 0.5
vt 0.0878906 0.5

# verts
v 0 2 0
v 0 2 -12
v 0 2.3 -2.9
v 0 2.3 -9.1
v 0 2.4 -3
v 0 2.4 -9
v 0 2.5 -2.9
v 0 2.5 -3
v 0 2.5 -9
v 0 2.5 -9.1
v 0 2.5 -12
v 0 2.6 0
v 0 2.6 -3
v 0 2.7 0
v 0 2.7 -3
v 0 2.7 -9
v 0 2.7 -12
v 2.4 2.4 -5.5
v 2.4 2.4 -7.5
v 2.4 2.5 -5.5
v 2.4 2.5 -7.5
v 2.4 2.6 -5.5
v 2.4 2.6 -7.5
v 2.4 2.7 -5.5
v 2.4 2.7 -7.5
v 2.7 2.4 -3
v 2.7 2.4 -3.3
v 2.7 2.5 -3
v 2.7 2.5 -3.3
v 2.7 2.6 -3
v 2.7 2.6 -3.3
v 2.7 2.7 -3
v 2.7 2.7 -3.3
v 2.8 2.4 -5.1
v 2.8 2.4 -5.5
v 2.8 2.4 -7.5
v 2.8 2.4 -7.9
v 2.8 2.5 -5.1
v 2.8 2.5 -5.5
v 2.8 2.5 -7.5
v 2.8 2.5 -7.9
v 2.8 2.6 -5.1
v 2.8 2.6 -5.5
v 2.8 2.6 -7.5
v 2.8 2.6 -7.9
v 2.8 2.7 -5.1
v 2.8 2.7 -5.5
v 2.8 2.7 -7.5
v 2.8 2.7 -7.9
v 6.3 2.5 -6
v 6.3 2.5 -7
v 6.3 2.6 -6
v 6.3 2.6 -7
v 6.5 2.6 -5.8
v 6.5 2.6 -7.2
v 6.5 2.7 -5.8
v 6.5 2.7 -7.2
v 6.8 2.4 -3.3
v 6.8 2.4 -3.9
v 6.8 2.5 -3.3
v 6.8 2.5 -3.9
v 6.8 2.6 -3.3
v 6.8 2.6 -3.9
v 6.8 2.7 -3.3
v 6.8 2.7 -3.9
v 7.9 2.4 -8.7
v 7.9 2.4 -9.2
v 7.9 2.5 -8.7
v 7.9 2.5 -9.2
v 7.9 2.6 -8.7
v 7.9 2.6 -9.2
v 7.9 2.7 -8.7
v 7.9 2.7 -9.2
v 2.6 2.4 -9
v 2.6 2.4 -9.2
v 2.6 2.5 -9
v 2.6 2.5 -9.2
v 2.6 2.6 -9
v 2.6 2.6 -9.2
v 2.6 2.7 -9
v 2.6 2.7 -9.2
v 3.3 2.6 -5.8
v 3.3 2.6 -7.2
v 3.3 2.7 -5.8
v 3.3 2.7 -7.2
v 3.5 2.5 -6
v 3.5 2.5 -7
v 3.5 2.6 -6
v 3.5 2.6 -7
v 6.9 2.4 -5.1
v 6.9 2.4 -5.5
v 6.9 2.4 -7.5
v 6.9 2.4 -7.9
v 6.9 2.5 -5.1
v 6.9 2.5 -5.5
v 6.9 2.5 -7.5
v 6.9 2.5 -7.9
v 6.9 2.6 -5.1
v 6.9 2.6 -5.5
v 6.9 2.6 -7.5
v 6.9 2.6 -7.9
v 6.9 2.7 -5.1
v 6.9 2.7 -5.5
v 6.9 2.7 -7.5
v 6.9 2.7 -7.9
v 7.3 2.4 -5.5
v 7.3 2.4 -7.5
v 7.3 2.5 -5.5
v 7.3 2.5 -7.5
v 7.3 2.6 -5.5
v 7.3 2.6 -7.5
v 7.3 2.7 -5.5
v 7.3 2.7 -7.5
v 8.1 2.4 -3
v 8.1 2.4 -3.9
v 8.1 2.5 -3
v 8.1 2.5 -3.9
v 8.1 2.6 -3
v 8.1 2.6 -3.9
v 8.1 2.7 -3
v 8.1 2.7 -3.9
v 8.9 2.4 -8.7
v 8.9 2.4 -9
v 8.9 2.5 -8.7
v 8.9 2.5 -9
v 8.9 2.6 -8.7
v 8.9 2.6 -9
v 8.9 2.7 -8.7
v 8.9 2.7 -9
v 12 2 0
v 12 2 -12
v 12 2.3 -2.9
v 12 2.3 -9.1
v 12 2.4 -3
v 12 2.4 -9
v 12 2.5 -2.9
v 12 2.5 -3
v 12 2.5 -9
v 12 2.5 -9.1
v 12 2.5 -9.2
v 12 2.5 -12
v 12 2.6 0
v 12 2.6 -3
v 12 2.6 -9
v 12 2.6 -9.2
v 12 2.7 0
v 12 2.7 -3
v 12 2.7 -9
v 12 2.7 -12
v 0 2 0
v 0 2.6 0
v 0 2.7 0
v 12 2 0
v 12 2.6 0
v 12 2.7 0
v 2.8 2.4 -5.1
v 2.8 2.5 -5.1
v 2.8 2.6 -5.1
v 2.8 2.7 -5.1
v 6.9 2.4 -5.1
v 6.9 2.5 -5.1
v 6.9 2.6 -5.1
v 6.9 2.7 -5.1
v 2.4 2.4 -5.5
v 2.4 2.5 -5.5
v 2.4 2.6 -5.5
v 2.4 2.7 -5.5
v 2.8 2.4 -5.5
v 2.8 2.5 -5.5
v 2.8 2.6 -5.5
v 2.8 2.7 -5.5
v 6.9 2.4 -5.5
v 6.9 2.5 -5.5
v 6.9 2.6 -5.5
v 6.9 2.7 -5.5
v 7.3 2.4 -5.5
v 7.3 2.5 -5.5
v 7.3 2.6 -5.5
v 7.3 2.7 -5.5
v 3.5 2.5 -7
v 3.5 2.6 -7
v 6.3 2.5 -7
v 6.3 2.6 -7
v 3.3 2.6 -7.2
v 3.3 2.7 -7.2
v 6.5 2.6 -7.2
v 6.5 2.7 -7.2
v 7.9 2.4 -8.7
v 7.9 2.5 -8.7
v 7.9 2.6 -8.7
v 7.9 2.7 -8.7
v 8.9 2.4 -8.7
v 8.9 2.5 -8.7
v 8.9 2.6 -8.7
v 8.9 2.7 -8.7
v 0 2.4 -9
v 0 2.5 -9
v 0 2.7 -9
v 2.1 2.5 -9
v 2.1 2.6 -9
v 2.6 2.4 -9
v 2.6 2.5 -9
v 2.6 2.6 -9
v 2.6 2.7 -9
v 8.9 2.4 -9
v 8.9 2.5 -9
v 8.9 2.6 -9
v 8.9 2.7 -9
v 12 2.4 -9
v 12 2.5 -9
v 12 2.6 -9
v 12 2.7 -9
v 2.6 2.4 -9.2
v 2.6 2.5 -9.2
v 2.6 2.6 -9.2
v 2.6 2.7 -9.2
v 7.9 2.4 -9.2
v 7.9 2.5 -9.2
v 7.9 2.6 -9.2
v 7.9 2.7 -9.2
v 0 2.4 -3
v 0 2.5 -3
v 0 2.6 -3
v 0 2.7 -3
v 2.7 2.4 -3
v 2.7 2.5 -3
v 2.7 2.6 -3
v 2.7 2.7 -3
v 8.1 2.4 -3
v 8.1 2.5 -3
v 8.1 2.6 -3
v 8.1 2.7 -3
v 12 2.4 -3
v 12 2.5 -3
v 12 2.6 -3
v 12 2.7 -3
v 2.7 2.4 -3.3
v 2.7 2.5 -3.3
v 2.7 2.6 -3.3
v 2.7 2.7 -3.3
v 6.8 2.4 -3.3
v 6.8 2.5 -3.3
v 6.8 2.6 -3.3
v 6.8 2.7 -3.3
v 6.8 2.4 -3.9
v 6.8 2.5 -3.9
v 6.8 2.6 -3.9
v 6.8 2.7 -3.9
v 8.1 2.4 -3.9
v 8.1 2.5 -3.9
v 8.1 2.6 -3.9
v 8.1 2.7 -3.9
v 3.3 2.6 -5.8
v 3.3 2.7 -5.8
v 6.5 2.6 -5.8
v 6.5 2.7 -5.8
v 3.5 2.5 -6
v 3.5 2.6 -6
v 6.3 2.5 -6
v 6.3 2.6 -6
v 2.4 2.4 -7.5
v 2.4 2.5 -7.5
v 2.4 2.6 -7.5
v 2.4 2.7 -7.5
v 2.8 2.4 -7.5
v 2.8 2.5 -7.5
v 2.8 2.6 -7.5
v 2.8 2.7 -7.5
v 6.9 2.4 -7.5
v 6.9 2.5 -7.5
v 6.9 2.6 -7.5
v 6.9 2.7 -7.5
v 7.3 2.4 -7.5
v 7.3 2.5 -7.5
v 7.3 2.6 -7.5
v 7.3 2.7 -7.5
v 2.8 2.4 -7.9
v 2.8 2.5 -7.9
v 2.8 2.6 -7.9
v 2.8 2.7 -7.9
v 6.9 2.4 -7.9
v 6.9 2.5 -7.9
v 6.9 2.6 -7.9
v 6.9 2.7 -7.9
v 0 2 -12
v 0 2.5 -12
v 0 2.7 -12
v 12 2 -12
v 12 2.5 -12
v 12 2.7 -12
v 0 2 0
v 12 2 0
v 0 2 -12
v 12 2 -12
v 0 2.4 -3
v 2.7 2.4 -3
v 8.1 2.4 -3
v 12 2.4 -3
v 2.7 2.4 -3.3
v 6.8 2.4 -3.3
v 6.8 2.4 -3.9
v 8.1 2.4 -3.9
v 2.8 2.4 -5.1
v 6.9 2.4 -5.1
v 2.4 2.4 -5.5
v 2.8 2.4 -5.5
v 6.9 2.4 -5.5
v 7.3 2.4 -5.5
v 2.4 2.4 -7.5
v 2.8 2.4 -7.5
v 6.9 2.4 -7.5
v 7.3 2.4 -7.5
v 2.8 2.4 -7.9
v 6.9 2.4 -7.9
v 7.9 2.4 -8.7
v 8.9 2.4 -8.7
v 0 2.4 -9
v 2.6 2.4 -9
v 8.9 2.4 -9
v 12 2.4 -9
v 2.6 2.4 -9.2
v 7.9 2.4 -9.2
v 3.5 2.5 -6
v 6.3 2.5 -6
v 3.5 2.5 -7
v 6.3 2.5 -7
v 3.3 2.6 -5.8
v 6.5 2.6 -5.8
v 3.5 2.6 -6
v 6.3 2.6 -6
v 3.5 2.6 -7
v 6.3 2.6 -7
v 3.3 2.6 -7.2
v 6.5 2.6 -7.2
v 0 2.7 0
v 12 2.7 0
v 0 2.7 -3
v 2.7 2.7 -3
v 8.1 2.7 -3
v 12 2.7 -3
v 2.7 2.7 -3.3
v 6.8 2.7 -3.3
v 6.8 2.7 -3.9
v 8.1 2.7 -3.9
v 2.8 2.7 -5.1
v 6.9 2.7 -5.1
v 2.4 2.7 -5.5
v 2.8 2.7 -5.5
v 6.9 2.7 -5.5
v 7.3 2.7 -5.5
v 3.3 2.7 -5.8
v 6.5 2.7 -5.8
v 3.3 2.7 -7.2
v 6.5 2.7 -7.2
v 2.4 2.7 -7.5
v 2.8 2.7 -7.5
v 6.9 2.7 -7.5
v 7.3 2.7 -7.5
v 2.8 2.7 -7.9
v 6.9 2.7 -7.9
v 7.9 2.7 -8.7
v 8.9 2.7 -8.7
v 0 2.7 -9
v 2.6 2.7 -9
v 8.9 2.7 -9
v 12 2.7 -9
v 2.6 2.7 -9.2
v 7.9 2.7 -9.2
v 0 2.7 -12
v 12 2.7 -12

# faces
f 3/4/1 2/4/1 1/4/1
f 4/4/1 2/4/1 3/4/1
f 5/1/1 4/1/1 3/1/1
f 6/1/1 4/1/1 5/1/1
f 7/4/1 3/4/1 1/4/1
f 7/1/1 5/1/1 3/1/1
f 8/1/1 5/1/1 7/1/1
f 9/1/1 4/1/1 6/1/1
f 10/4/1 2/4/1 4/4/1
f 10/1/1 4/1/1 9/1/1
f 11/4/1 2/4/1 10/4/1
f 12/4/1 8/4/1 7/4/1
f 12/4/1 7/4/1 1/4/1
f 13/4/1 8/4/1 12/4/1
f 14/2/1 13/2/1 12/2/1
f 15/2/1 13/2/1 14/2/1
f 16/2/1 11/2/1 10/2/1
f 16/2/1 10/2/1 9/2/1
f 17/2/1 11/2/1 16/2/1
f 20/1/1 19/1/1 18/1/1
f 21/1/1 19/1/1 20/1/1
f 22/4/1 21/4/1 20/4/1
f 23/4/1 21/4/1 22/4/1
f 24/3/1 23/3/1 22/3/1
f 25/3/1 23/3/1 24/3/1
f 28/1/1 27/1/1 26/1/1
f 29/1/1 27/1/1 28/1/1
f 30/4/1 29/4/1 28/4/1
f 31/4/1 29/4/1 30/4/1
f 32/2/1 31/2/1 30/2/1
f 33/2/1 31/2/1 32/2/1
f 38/1/1 35/1/1 34/1/1
f 39/1/1 35/1/1 38/1/1
f 40/1/1 37/1/1 36/1/1
f 41/1/1 37/1/1 40/1/1
f 42/4/1 39/4/1 38/4/1
f 43/4/1 39/4/1 42/4/1
f 44/4/1 41/4/1 40/4/1
f 45/4/1 41/4/1 44/4/1
f 46/3/1 43/3/1 42/3/1
f 47/3/1 43/3/1 46/3/1
f 48/3/1 45/3/1 44/3/1
f 49/3/1 45/3/1 48/3/1
f 52/1/1 51/1/1 50/1/1
f 53/1/1 51/1/1 52/1/1
f 56/3/1 55/3/1 54/3/1
f 57/3/1 55/3/1 56/3/1
f 60/1/1 59/1/1 58/1/1
f 61/1/1 59/1/1 60/1/1
f 62/4/1 61/4/1 60/4/1
f 63/4/1 61/4/1 62/4/1
f 64/2/1 63/2/1 62/2/1
f 65/2/1 63/2/1 64/2/1
f 68/1/1 67/1/1 66/1/1
f 69/1/1 67/1/1 68/1/1
f 70/4/1 69/4/1 68/4/1
f 71/4/1 69/4/1 70/4/1
f 72/2/1 71/2/1 70/2/1
f 73/2/1 71/2/1 72/2/1
f 74/1/2 75/1/2 76/1/2
f 76/1/2 75/1/2 77/1/2
f 76/4/2 77/4/2 78/4/2
f 78/4/2 77/4/2 79/4/2
f 78/2/2 79/2/2 80/2/2
f 80/2/2 79/2/2 81/2/2
f 82/3/2 83/3/2 84/3/2
f 84/3/2 83/3/2 85/3/2
f 86/1/2 87/1/2 88/1/2
f 88/1/2 87/1/2 89/1/2
f 90/1/2 91/1/2 94/1/2
f 94/1/2 91/1/2 95/1/2
f 92/1/2 93/1/2 96/1/2
f 96/1/2 93/1/2 97/1/2
f 94/4/2 95/4/2 98/4/2
f 98/4/2 95/4/2 99/4/2
f 96/4/2 97/4/2 100/4/2
f 100/4/2 97/4/2 101/4/2
f 98/3/2 99/3/2 102/3/2
f 102/3/2 99/3/2 103/3/2
f 100/3/2 101/3/2 104/3/2
f 104/3/2 101/3/2 105/3/2
f 106/1/2 107/1/2 108/1/2
f 108/1/2 107/1/2 109/1/2
f 108/4/2 109/4/2 110/4/2
f 110/4/2 109/4/2 111/4/2
f 110/3/2 111/3/2 112/3/2
f 112/3/2 111/3/2 113/3/2
f 114/1/2 115/1/2 116/1/2
f 116/1/2 115/1/2 117/1/2
f 116/4/2 117/4/2 118/4/2
f 118/4/2 117/4/2 119/4/2
f 118/2/2 119/2/2 120/2/2
f 120/2/2 119/2/2 121/2/2
f 122/1/2 123/1/2 124/1/2
f 124/1/2 123/1/2 125/1/2
f 124/4/2 125/4/2 126/4/2
f 126/4/2 125/4/2 127/4/2
f 126/2/2 127/2/2 128/2/2
f 128/2/2 127/2/2 129/2/2
f 130/4/2 131/4/2 132/4/2
f 132/4/2 131/4/2 133/4/2
f 132/1/2 133/1/2 134/1/2
f 134/1/2 133/1/2 135/1/2
f 130/4/2 132/4/2 136/4/2
f 132/1/2 134/1/2 136/1/2
f 136/1/2 134/1/2 137/1/2
f 135/1/2 133/1/2 138/1/2
f 133/4/2 131/4/2 139/4/2
f 138/1/2 133/1/2 139/1/2
f 139/4/2 131/4/2 140/4/2
f 140/4/2 131/4/2 141/4/2
f 136/4/2 137/4/2 142/4/2
f 130/4/2 136/4/2 142/4/2
f 142/4/2 137/4/2 143/4/2
f 138/4/2 139/4/2 144/4/2
f 139/4/2 140/4/2 144/4/2
f 140/2/2 141/2/2 145/2/2
f 144/4/2 140/4/2 145/4/2
f 142/2/2 143/2/2 146/2/2
f 146/2/2 143/2/2 147/2/2
f 144/2/2 145/2/2 148/2/2
f 145/2/2 141/2/2 149/2/2
f 148/2/2 145/2/2 149/2/2
f 153/4/3 151/4/3 150/4/3
f 154/2/3 152/2/3 151/2/3
f 154/4/3 151/4/3 153/4/3
f 155/2/3 152/2/3 154/2/3
f 160/1/3 157/1/3 156/1/3
f 161/4/3 158/4/3 157/4/3
f 161/1/3 157/1/3 160/1/3
f 162/3/3 159/3/3 158/3/3
f 162/4/3 158/4/3 161/4/3
f 163/3/3 159/3/3 162/3/3
f 168/1/3 165/1/3 164/1/3
f 169/4/3 166/4/3 165/4/3
f 169/1/3 165/1/3 168/1/3
f 170/3/3 167/3/3 166/3/3
f 170/4/3 166/4/3 169/4/3
f 171/3/3 167/3/3 170/3/3
f 176/1/3 173/1/3 172/1/3
f 177/4/3 174/4/3 173/4/3
f 177/1/3 173/1/3 176/1/3
f 178/3/3 175/3/3 174/3/3
f 178/4/3 174/4/3 177/4/3
f 179/3/3 175/3/3 178/3/3
f 182/1/3 181/1/3 180/1/3
f 183/1/3 181/1/3 182/1/3
f 186/3/3 185/3/3 184/3/3
f 187/3/3 185/3/3 186/3/3
f 192/1/3 189/1/3 188/1/3
f 193/4/3 190/4/3 189/4/3
f 193/1/3 189/1/3 192/1/3
f 194/2/3 191/2/3 190/2/3
f 194/4/3 190/4/3 193/4/3
f 195/2/3 191/2/3 194/2/3
f 199/1/3 197/1/3 196/1/3
f 199/2/3 198/2/3 197/2/3
f 200/2/3 198/2/3 199/2/3
f 201/1/3 199/1/3 196/1/3
f 202/4/3 200/4/3 199/4/3
f 202/1/3 199/1/3 201/1/3
f 203/2/3 198/2/3 200/2/3
f 203/4/3 200/4/3 202/4/3
f 204/2/3 198/2/3 203/2/3
f 209/1/3 206/1/3 205/1/3
f 210/4/3 207/4/3 206/4/3
f 210/1/3 206/1/3 209/1/3
f 211/2/3 208/2/3 207/2/3
f 211/4/3 207/4/3 210/4/3
f 212/2/3 208/2/3 211/2/3
f 217/1/3 214/1/3 213/1/3
f 218/4/3 215/4/3 214/4/3
f 218/1/3 214/1/3 217/1/3
f 219/2/3 216/2/3 215/2/3
f 219/4/3 215/4/3 218/4/3
f 220/2/3 216/2/3 219/2/3
f 221/1/4 222/1/4 225/1/4
f 222/4/4 223/4/4 226/4/4
f 225/1/4 222/1/4 226/1/4
f 223/2/4 224/2/4 227/2/4
f 226/4/4 223/4/4 227/4/4
f 227/2/4 224/2/4 228/2/4
f 229/1/4 230/1/4 233/1/4
f 230/4/4 231/4/4 234/4/4
f 233/1/4 230/1/4 234/1/4
f 231/2/4 232/2/4 235/2/4
f 234/4/4 231/4/4 235/4/4
f 235/2/4 232/2/4 236/2/4
f 237/1/4 238/1/4 241/1/4
f 238/4/4 239/4/4 242/4/4
f 241/1/4 238/1/4 242/1/4
f 239/2/4 240/2/4 243/2/4
f 242/4/4 239/4/4 243/4/4
f 243/2/4 240/2/4 244/2/4
f 245/1/4 246/1/4 249/1/4
f 246/4/4 247/4/4 250/4/4
f 249/1/4 246/1/4 250/1/4
f 247/2/4 248/2/4 251/2/4
f 250/4/4 247/4/4 251/4/4
f 251/2/4 248/2/4 252/2/4
f 253/3/4 254/3/4 255/3/4
f 255/3/4 254/3/4 256/3/4
f 257/1/4 258/1/4 259/1/4
f 259/1/4 258/1/4 260/1/4
f 261/1/4 262/1/4 265/1/4
f 262/4/4 263/4/4 266/4/4
f 265/1/4 262/1/4 266/1/4
f 263/3/4 264/3/4 267/3/4
f 266/4/4 263/4/4 267/4/4
f 267/3/4 264/3/4 268/3/4
f 269/1/4 270/1/4 273/1/4
f 270/4/4 271/4/4 274/4/4
f 273/1/4 270/1/4 274/1/4
f 271/3/4 272/3/4 275/3/4
f 274/4/4 271/4/4 275/4/4
f 275/3/4 272/3/4 276/3/4
f 277/1/4 278/1/4 281/1/4
f 278/4/4 279/4/4 282/4/4
f 281/1/4 278/1/4 282/1/4
f 279/3/4 280/3/4 283/3/4
f 282/4/4 279/4/4 283/4/4
f 283/3/4 280/3/4 284/3/4
f 285/4/4 286/4/4 288/4/4
f 286/2/4 287/2/4 289/2/4
f 288/4/4 286/4/4 289/4/4
f 289/2/4 287/2/4 290/2/4
f 293/4/5 292/4/5 291/4/5
f 294/4/5 292/4/5 293/4/5
f 295/1/6 296/1/6 299/1/6
f 299/1/6 300/1/6 301/1/6
f 297/1/6 298/1/6 302/1/6
f 299/1/6 301/1/6 303/1/6
f 301/1/6 302/1/6 303/1/6
f 303/1/6 302/1/6 304/1/6
f 295/1/6 299/1/6 305/1/6
f 299/1/6 303/1/6 305/1/6
f 305/1/6 303/1/6 306/1/6
f 304/1/6 302/1/6 307/1/6
f 307/1/6 302/1/6 308/1/6
f 295/1/6 305/1/6 309/1/6
f 308/1/6 302/1/6 312/1/6
f 309/1/6 310/1/6 313/1/6
f 311/1/6 312/1/6 314/1/6
f 312/1/6 302/1/6 315/1/6
f 313/1/6 314/1/6 315/1/6
f 314/1/6 312/1/6 315/1/6
f 302/1/6 298/1/6 316/1/6
f 315/1/6 302/1/6 316/1/6
f 313/1/6 315/1/6 317/1/6
f 309/1/6 313/1/6 317/1/6
f 295/1/6 309/1/6 317/1/6
f 317/1/6 315/1/6 318/1/6
f 316/1/6 298/1/6 319/1/6
f 319/1/6 298/1/6 320/1/6
f 318/1/6 315/1/6 321/1/6
f 321/1/6 315/1/6 322/1/6
f 323/1/6 324/1/6 325/1/6
f 325/1/6 324/1/6 326/1/6
f 327/1/6 328/1/6 329/1/6
f 329/1/6 328/1/6 330/1/6
f 327/1/6 329/1/6 331/1/6
f 330/1/6 328/1/6 332/1/6
f 327/1/6 331/1/6 333/1/6
f 331/1/6 332/1/6 333/1/6
f 332/1/6 328/1/6 334/1/6
f 333/1/6 332/1/6 334/1/6
f 335/2/6 336/2/6 337/2/6
f 337/2/6 336/2/6 338/2/6
f 338/2/6 336/2/6 339/2/6
f 339/2/6 336/2/6 340/2/6
f 338/2/6 339/2/6 341/2/6
f 341/2/6 339/2/6 342/2/6
f 342/2/6 339/2/6 343/2/6
f 343/2/6 339/2/6 344/2/6
f 345/3/6 346/3/6 348/3/6
f 348/3/6 346/3/6 349/3/6
f 347/3/6 348/3/6 351/3/6
f 349/3/6 350/3/6 351/3/6
f 348/3/6 349/3/6 351/3/6
f 351/3/6 350/3/6 352/3/6
f 347/3/6 351/3/6 353/3/6
f 352/3/6 350/3/6 354/3/6
f 347/3/6 353/3/6 355/3/6
f 353/3/6 354/3/6 355/3/6
f 355/3/6 354/3/6 356/3/6
f 354/3/6 350/3/6 357/3/6
f 356/3/6 354/3/6 357/3/6
f 357/3/6 350/3/6 358/3/6
f 356/3/6 357/3/6 359/3/6
f 359/3/6 357/3/6 360/3/6
f 361/2/6 362/2/6 365/2/6
f 363/2/6 364/2/6 367/2/6
f 365/2/6 366/2/6 368/2/6
f 361/2/6 365/2/6 368/2/6
f 363/2/6 367/2/6 369/2/6
f 367/2/6 368/2/6 369/2/6
f 368/2/6 366/2/6 370/2/6
f 369/2/6 368/2/6 370/2/6
