# MagicaVoxel @ Ephtracy

# group
o 

# material
mtllib L_5.mtl
usemtl palette

# normals
vn -1 0 0
vn 1 0 0
vn 0 0 1
vn 0 0 -1
vn 0 -1 0
vn 0 1 0

# texcoords
vt 0.00976563 0.5
vt 0.0917969 0.5

# verts
v 0 2 0
v 0 2 -12
v 0 2.4 -3
v 0 2.4 -9
v 0 2.7 0
v 0 2.7 -3
v 0 2.7 -9
v 0 2.7 -12
v 3 2.4 -8
v 3 2.4 -9
v 3 2.7 -8
v 3 2.7 -9
v 3.3 2.4 -4.2
v 3.3 2.4 -5.3
v 3.3 2.7 -1.3
v 3.3 2.7 -1.9
v 3.3 2.7 -4.2
v 3.3 2.7 -5.3
v 3.3 2.8 -1.8
v 3.3 2.8 -1.9
v 3.3 2.9 -1.3
v 3.3 2.9 -1.8
v 3.6 2.7 -8.4
v 3.6 2.7 -9.1
v 3.6 2.8 -8.4
v 3.6 2.8 -9.1
v 3.8 2.8 -8.6
v 3.8 2.8 -9
v 3.8 2.9 -8.6
v 3.8 2.9 -9
v 3.9 2.4 -7.4
v 3.9 2.4 -8
v 3.9 2.7 -4.5
v 3.9 2.7 -4.9
v 3.9 2.7 -7.4
v 3.9 2.7 -8
v 3.9 2.8 -4.5
v 3.9 2.8 -4.9
v 4 2.7 -7.4
v 4 2.7 -7.7
v 4 2.8 -7.4
v 4 2.8 -7.7
v 6 2.7 -10.5
v 6 2.7 -11.4
v 6 2.8 -10.5
v 6 2.8 -11.4
v 6.3 2.8 -10.5
v 6.3 2.8 -11
v 6.3 2.9 -10.5
v 6.3 2.9 -11
v 7.4 2.7 -1.6
v 7.4 2.7 -2.3
v 7.4 2.8 -1.6
v 7.4 2.8 -2.3
v 7.6 2.8 -1.6
v 7.6 2.8 -2
v 7.6 2.9 -1.6
v 7.6 2.9 -2
v 8.6 2.4 -6.1
v 8.6 2.4 -7.6
v 8.6 2.8 -6.1
v 8.6 2.8 -7.6
v 8.7 2.8 -6.1
v 8.7 2.8 -7.1
v 8.7 2.9 -6.1
v 8.7 2.9 -7.1
v 9.6 2.4 -5.1
v 9.6 2.4 -6.1
v 9.6 2.7 -5.1
v 9.6 2.7 -6.1
v 9.6 2.7 -6.3
v 9.6 2.7 -6.9
v 9.6 2.7 -9.7
v 9.6 2.7 -10.4
v 9.6 2.8 -6.3
v 9.6 2.8 -6.9
v 9.6 2.8 -10.2
v 9.6 2.8 -10.4
v 9.6 2.9 -9.7
v 9.6 2.9 -10.2
v 9.8 2.7 -0.5
v 9.8 2.7 -1.5
v 9.8 2.8 -0.5
v 9.8 2.8 -1.5
v 9.9 2.8 -0.5
v 9.9 2.8 -1.1
v 9.9 2.8 -6.6
v 9.9 2.8 -6.8
v 9.9 2.9 -0.5
v 9.9 2.9 -1.1
v 9.9 2.9 -6.6
v 9.9 2.9 -6.8
v 3.8 2.8 -1.3
v 3.8 2.8 -1.8
v 3.8 2.9 -1.3
v 3.8 2.9 -1.8
v 4 2.7 -1.3
v 4 2.7 -1.9
v 4 2.8 -1.3
v 4 2.8 -1.9
v 4.1 2.8 -8.6
v 4.1 2.8 -9
v 4.1 2.9 -8.6
v 4.1 2.9 -9
v 4.2 2.7 -8.4
v 4.2 2.7 -9.1
v 4.2 2.8 -8.4
v 4.2 2.8 -9.1
v 4.4 2.4 -8
v 4.4 2.4 -9
v 4.4 2.7 -4.5
v 4.4 2.7 -4.9
v 4.4 2.7 -8
v 4.4 2.7 -9
v 4.4 2.8 -4.5
v 4.4 2.8 -4.9
v 4.5 2.4 -7.4
v 4.5 2.4 -8
v 4.5 2.7 -7.7
v 4.5 2.7 -8
v 4.5 2.8 -7.4
v 4.5 2.8 -7.7
v 4.7 2.4 -4.2
v 4.7 2.4 -5.3
v 4.7 2.7 -4.2
v 4.7 2.7 -5.3
v 6.8 2.7 -10.5
v 6.8 2.7 -11.4
v 6.8 2.8 -11
v 6.8 2.8 -11.4
v 6.8 2.9 -10.5
v 6.8 2.9 -11
v 8.1 2.7 -1.6
v 8.1 2.7 -2.3
v 8.1 2.8 -2
v 8.1 2.8 -2.3
v 8.1 2.9 -1.6
v 8.1 2.9 -2
v 9.1 2.8 -6.1
v 9.1 2.8 -7.1
v 9.1 2.9 -6.1
v 9.1 2.9 -7.1
v 9.2 2.7 -6.1
v 9.2 2.7 -7.6
v 9.2 2.8 -6.1
v 9.2 2.8 -7.6
v 10.1 2.8 -9.7
v 10.1 2.8 -10.2
v 10.1 2.9 -9.7
v 10.1 2.9 -10.2
v 10.3 2.7 -9.7
v 10.3 2.7 -10.4
v 10.3 2.8 -6.6
v 10.3 2.8 -6.8
v 10.3 2.8 -9.7
v 10.3 2.8 -10.4
v 10.3 2.9 -6.6
v 10.3 2.9 -6.8
v 10.4 2.8 -0.5
v 10.4 2.8 -1.1
v 10.4 2.9 -0.5
v 10.4 2.9 -1.1
v 10.6 2.7 -6.3
v 10.6 2.7 -6.9
v 10.6 2.8 -6.3
v 10.6 2.8 -6.9
v 10.7 2.7 -0.5
v 10.7 2.7 -1.5
v 10.7 2.8 -0.5
v 10.7 2.8 -1.5
v 10.8 2.4 -5.1
v 10.8 2.4 -7.6
v 10.8 2.7 -5.1
v 10.8 2.7 -7.6
v 12 2 0
v 12 2 -3
v 12 2 -9
v 12 2 -12
v 12 2.4 -3
v 12 2.4 -9
v 12 2.6 0
v 12 2.6 -3
v 12 2.6 -9
v 12 2.6 -12
v 12 2.7 0
v 12 2.7 -3
v 12 2.7 -9
v 12 2.7 -12
v 0 2 0
v 0 2.7 0
v 11.9 2 0
v 11.9 2.6 0
v 12 2 0
v 12 2.6 0
v 12 2.7 0
v 9.8 2.7 -0.5
v 9.8 2.8 -0.5
v 9.9 2.8 -0.5
v 9.9 2.9 -0.5
v 10.4 2.8 -0.5
v 10.4 2.9 -0.5
v 10.7 2.7 -0.5
v 10.7 2.8 -0.5
v 3.3 2.7 -1.3
v 3.3 2.9 -1.3
v 3.8 2.8 -1.3
v 3.8 2.9 -1.3
v 4 2.7 -1.3
v 4 2.8 -1.3
v 7.4 2.7 -1.6
v 7.4 2.8 -1.6
v 7.6 2.8 -1.6
v 7.6 2.9 -1.6
v 8.1 2.7 -1.6
v 8.1 2.9 -1.6
v 3.3 2.4 -4.2
v 3.3 2.7 -4.2
v 4.7 2.4 -4.2
v 4.7 2.7 -4.2
v 3.9 2.7 -4.5
v 3.9 2.8 -4.5
v 4.4 2.7 -4.5
v 4.4 2.8 -4.5
v 9.6 2.4 -5.1
v 9.6 2.7 -5.1
v 10.8 2.4 -5.1
v 10.8 2.7 -5.1
v 8.6 2.4 -6.1
v 8.6 2.8 -6.1
v 8.7 2.8 -6.1
v 8.7 2.9 -6.1
v 9.1 2.8 -6.1
v 9.1 2.9 -6.1
v 9.2 2.7 -6.1
v 9.2 2.8 -6.1
v 9.6 2.4 -6.1
v 9.6 2.7 -6.1
v 9.6 2.7 -6.3
v 9.6 2.8 -6.3
v 10.6 2.7 -6.3
v 10.6 2.8 -6.3
v 9.9 2.8 -6.6
v 9.9 2.9 -6.6
v 10.3 2.8 -6.6
v 10.3 2.9 -6.6
v 3.9 2.4 -7.4
v 3.9 2.7 -7.4
v 4 2.7 -7.4
v 4 2.8 -7.4
v 4.5 2.4 -7.4
v 4.5 2.8 -7.4
v 3 2.4 -8
v 3 2.7 -8
v 3.9 2.4 -8
v 3.9 2.7 -8
v 3.6 2.7 -8.4
v 3.6 2.8 -8.4
v 4.2 2.7 -8.4
v 4.2 2.8 -8.4
v 3.8 2.8 -8.6
v 3.8 2.9 -8.6
v 4.1 2.8 -8.6
v 4.1 2.9 -8.6
v 0 2.4 -9
v 0 2.7 -9
v 3 2.4 -9
v 3 2.7 -9
v 4.4 2.4 -9
v 4.4 2.7 -9
v 11.9 2.4 -9
v 11.9 2.6 -9
v 12 2.4 -9
v 12 2.6 -9
v 12 2.7 -9
v 9.6 2.7 -9.7
v 9.6 2.9 -9.7
v 10.1 2.8 -9.7
v 10.1 2.9 -9.7
v 10.3 2.7 -9.7
v 10.3 2.8 -9.7
v 6 2.7 -10.5
v 6 2.8 -10.5
v 6.3 2.8 -10.5
v 6.3 2.9 -10.5
v 6.8 2.7 -10.5
v 6.8 2.9 -10.5
v 9.9 2.8 -1.1
v 9.9 2.9 -1.1
v 10.4 2.8 -1.1
v 10.4 2.9 -1.1
v 9.8 2.7 -1.5
v 9.8 2.8 -1.5
v 10.7 2.7 -1.5
v 10.7 2.8 -1.5
v 3.3 2.8 -1.8
v 3.3 2.9 -1.8
v 3.8 2.8 -1.8
v 3.8 2.9 -1.8
v 3.3 2.7 -1.9
v 3.3 2.8 -1.9
v 4 2.7 -1.9
v 4 2.8 -1.9
v 7.6 2.8 -2
v 7.6 2.9 -2
v 8.1 2.8 -2
v 8.1 2.9 -2
v 7.4 2.7 -2.3
v 7.4 2.8 -2.3
v 8.1 2.7 -2.3
v 8.1 2.8 -2.3
v 0 2.4 -3
v 0 2.7 -3
v 11.9 2.4 -3
v 11.9 2.6 -3
v 12 2.4 -3
v 12 2.6 -3
v 12 2.7 -3
v 3.9 2.7 -4.9
v 3.9 2.8 -4.9
v 4.4 2.7 -4.9
v 4.4 2.8 -4.9
v 3.3 2.4 -5.3
v 3.3 2.7 -5.3
v 4.7 2.4 -5.3
v 4.7 2.7 -5.3
v 9.9 2.8 -6.8
v 9.9 2.9 -6.8
v 10.3 2.8 -6.8
v 10.3 2.9 -6.8
v 9.6 2.7 -6.9
v 9.6 2.8 -6.9
v 10.6 2.7 -6.9
v 10.6 2.8 -6.9
v 8.7 2.8 -7.1
v 8.7 2.9 -7.1
v 9.1 2.8 -7.1
v 9.1 2.9 -7.1
v 8.6 2.4 -7.6
v 8.6 2.8 -7.6
v 9.2 2.7 -7.6
v 9.2 2.8 -7.6
v 10.8 2.4 -7.6
v 10.8 2.7 -7.6
v 4 2.7 -7.7
v 4 2.8 -7.7
v 4.5 2.7 -7.7
v 4.5 2.8 -7.7
v 4.4 2.4 -8
v 4.4 2.7 -8
v 4.5 2.4 -8
v 4.5 2.7 -8
v 3.8 2.8 -9
v 3.8 2.9 -9
v 4.1 2.8 -9
v 4.1 2.9 -9
v 3.6 2.7 -9.1
v 3.6 2.8 -9.1
v 4.2 2.7 -9.1
v 4.2 2.8 -9.1
v 9.6 2.8 -10.2
v 9.6 2.9 -10.2
v 10.1 2.8 -10.2
v 10.1 2.9 -10.2
v 9.6 2.7 -10.4
v 9.6 2.8 -10.4
v 10.3 2.7 -10.4
v 10.3 2.8 -10.4
v 6.3 2.8 -11
v 6.3 2.9 -11
v 6.8 2.8 -11
v 6.8 2.9 -11
v 6 2.7 -11.4
v 6 2.8 -11.4
v 6.8 2.7 -11.4
v 6.8 2.8 -11.4
v 0 2 -12
v 0 2.7 -12
v 11.9 2 -12
v 11.9 2.6 -12
v 12 2 -12
v 12 2.6 -12
v 12 2.7 -12
v 0 2 0
v 11.9 2 0
v 12 2 0
v 11.9 2 -3
v 12 2 -3
v 11.9 2 -9
v 12 2 -9
v 0 2 -12
v 11.9 2 -12
v 12 2 -12
v 0 2.4 -3
v 11.9 2.4 -3
v 12 2.4 -3
v 3.3 2.4 -4.2
v 4.7 2.4 -4.2
v 9.6 2.4 -5.1
v 10.8 2.4 -5.1
v 3.3 2.4 -5.3
v 4.7 2.4 -5.3
v 8.6 2.4 -6.1
v 9.6 2.4 -6.1
v 3.9 2.4 -7.4
v 4.5 2.4 -7.4
v 8.6 2.4 -7.6
v 10.8 2.4 -7.6
v 3 2.4 -8
v 3.9 2.4 -8
v 4.4 2.4 -8
v 4.5 2.4 -8
v 0 2.4 -9
v 3 2.4 -9
v 4.4 2.4 -9
v 11.9 2.4 -9
v 12 2.4 -9
v 0 2.7 0
v 12 2.7 0
v 9.8 2.7 -0.5
v 10.7 2.7 -0.5
v 3.3 2.7 -1.3
v 4 2.7 -1.3
v 9.8 2.7 -1.5
v 10.7 2.7 -1.5
v 7.4 2.7 -1.6
v 8.1 2.7 -1.6
v 3.3 2.7 -1.9
v 4 2.7 -1.9
v 7.4 2.7 -2.3
v 8.1 2.7 -2.3
v 0 2.7 -3
v 12 2.7 -3
v 3.3 2.7 -4.2
v 4.7 2.7 -4.2
v 3.9 2.7 -4.5
v 4.4 2.7 -4.5
v 3.9 2.7 -4.9
v 4.4 2.7 -4.9
v 9.6 2.7 -5.1
v 10.8 2.7 -5.1
v 3.3 2.7 -5.3
v 4.7 2.7 -5.3
v 9.2 2.7 -6.1
v 9.6 2.7 -6.1
v 9.6 2.7 -6.3
v 10.6 2.7 -6.3
v 9.6 2.7 -6.9
v 10.6 2.7 -6.9
v 3.9 2.7 -7.4
v 4 2.7 -7.4
v 9.2 2.7 -7.6
v 10.8 2.7 -7.6
v 4 2.7 -7.7
v 4.5 2.7 -7.7
v 3 2.7 -8
v 3.9 2.7 -8
v 4.4 2.7 -8
v 4.5 2.7 -8
v 3.6 2.7 -8.4
v 4.2 2.7 -8.4
v 0 2.7 -9
v 3 2.7 -9
v 4.4 2.7 -9
v 12 2.7 -9
v 3.6 2.7 -9.1
v 4.2 2.7 -9.1
v 9.6 2.7 -9.7
v 10.3 2.7 -9.7
v 9.6 2.7 -10.4
v 10.3 2.7 -10.4
v 6 2.7 -10.5
v 6.8 2.7 -10.5
v 6 2.7 -11.4
v 6.8 2.7 -11.4
v 0 2.7 -12
v 12 2.7 -12
v 9.8 2.8 -0.5
v 9.9 2.8 -0.5
v 10.4 2.8 -0.5
v 10.7 2.8 -0.5
v 9.9 2.8 -1.1
v 10.4 2.8 -1.1
v 3.8 2.8 -1.3
v 4 2.8 -1.3
v 9.8 2.8 -1.5
v 10.7 2.8 -1.5
v 7.4 2.8 -1.6
v 7.6 2.8 -1.6
v 3.3 2.8 -1.8
v 3.8 2.8 -1.8
v 3.3 2.8 -1.9
v 4 2.8 -1.9
v 7.6 2.8 -2
v 8.1 2.8 -2
v 7.4 2.8 -2.3
v 8.1 2.8 -2.3
v 3.9 2.8 -4.5
v 4.4 2.8 -4.5
v 3.9 2.8 -4.9
v 4.4 2.8 -4.9
v 8.6 2.8 -6.1
v 8.7 2.8 -6.1
v 9.1 2.8 -6.1
v 9.2 2.8 -6.1
v 9.6 2.8 -6.3
v 10.6 2.8 -6.3
v 9.9 2.8 -6.6
v 10.3 2.8 -6.6
v 9.9 2.8 -6.8
v 10.3 2.8 -6.8
v 9.6 2.8 -6.9
v 10.6 2.8 -6.9
v 8.7 2.8 -7.1
v 9.1 2.8 -7.1
v 4 2.8 -7.4
v 4.5 2.8 -7.4
v 8.6 2.8 -7.6
v 9.2 2.8 -7.6
v 4 2.8 -7.7
v 4.5 2.8 -7.7
v 3.6 2.8 -8.4
v 4.2 2.8 -8.4
v 3.8 2.8 -8.6
v 4.1 2.8 -8.6
v 3.8 2.8 -9
v 4.1 2.8 -9
v 3.6 2.8 -9.1
v 4.2 2.8 -9.1
v 10.1 2.8 -9.7
v 10.3 2.8 -9.7
v 9.6 2.8 -10.2
v 10.1 2.8 -10.2
v 9.6 2.8 -10.4
v 10.3 2.8 -10.4
v 6 2.8 -10.5
v 6.3 2.8 -10.5
v 6.3 2.8 -11
v 6.8 2.8 -11
v 6 2.8 -11.4
v 6.8 2.8 -11.4
v 9.9 2.9 -0.5
v 10.4 2.9 -0.5
v 9.9 2.9 -1.1
v 10.4 2.9 -1.1
v 3.3 2.9 -1.3
v 3.8 2.9 -1.3
v 7.6 2.9 -1.6
v 8.1 2.9 -1.6
v 3.3 2.9 -1.8
v 3.8 2.9 -1.8
v 7.6 2.9 -2
v 8.1 2.9 -2
v 8.7 2.9 -6.1
v 9.1 2.9 -6.1
v 9.9 2.9 -6.6
v 10.3 2.9 -6.6
v 9.9 2.9 -6.8
v 10.3 2.9 -6.8
v 8.7 2.9 -7.1
v 9.1 2.9 -7.1
v 3.8 2.9 -8.6
v 4.1 2.9 -8.6
v 3.8 2.9 -9
v 4.1 2.9 -9
v 9.6 2.9 -9.7
v 10.1 2.9 -9.7
v 9.6 2.9 -10.2
v 10.1 2.9 -10.2
v 6.3 2.9 -10.5
v 6.8 2.9 -10.5
v 6.3 2.9 -11
v 6.8 2.9 -11

# faces
f 3/1/1 2/1/1 1/1/1
f 4/1/1 2/1/1 3/1/1
f 5/1/1 3/1/1 1/1/1
f 6/1/1 3/1/1 5/1/1
f 7/1/1 2/1/1 4/1/1
f 8/1/1 2/1/1 7/1/1
f 11/1/1 10/1/1 9/1/1
f 12/1/1 10/1/1 11/1/1
f 17/1/1 14/1/1 13/1/1
f 18/1/1 14/1/1 17/1/1
f 19/1/1 16/1/1 15/1/1
f 20/1/1 16/1/1 19/1/1
f 21/1/1 19/1/1 15/1/1
f 22/1/1 19/1/1 21/1/1
f 25/1/1 24/1/1 23/1/1
f 26/1/1 24/1/1 25/1/1
f 29/1/1 28/1/1 27/1/1
f 30/1/1 28/1/1 29/1/1
f 35/1/1 32/1/1 31/1/1
f 36/1/1 32/1/1 35/1/1
f 37/1/1 34/1/1 33/1/1
f 38/1/1 34/1/1 37/1/1
f 41/1/1 40/1/1 39/1/1
f 42/1/1 40/1/1 41/1/1
f 45/1/1 44/1/1 43/1/1
f 46/1/1 44/1/1 45/1/1
f 49/1/1 48/1/1 47/1/1
f 50/1/1 48/1/1 49/1/1
f 53/1/1 52/1/1 51/1/1
f 54/1/1 52/1/1 53/1/1
f 57/1/1 56/1/1 55/1/1
f 58/1/1 56/1/1 57/1/1
f 61/1/1 60/1/1 59/1/1
f 62/1/1 60/1/1 61/1/1
f 65/1/1 64/1/1 63/1/1
f 66/1/1 64/1/1 65/1/1
f 69/1/1 68/1/1 67/1/1
f 70/1/1 68/1/1 69/1/1
f 75/1/1 72/1/1 71/1/1
f 76/1/1 72/1/1 75/1/1
f 77/1/1 74/1/1 73/1/1
f 78/1/1 74/1/1 77/1/1
f 79/1/1 77/1/1 73/1/1
f 80/1/1 77/1/1 79/1/1
f 83/1/1 82/1/1 81/1/1
f 84/1/1 82/1/1 83/1/1
f 89/1/1 86/1/1 85/1/1
f 90/1/1 86/1/1 89/1/1
f 91/1/1 88/1/1 87/1/1
f 92/1/1 88/1/1 91/1/1
f 93/1/2 94/1/2 95/1/2
f 95/1/2 94/1/2 96/1/2
f 97/1/2 98/1/2 99/1/2
f 99/1/2 98/1/2 100/1/2
f 101/1/2 102/1/2 103/1/2
f 103/1/2 102/1/2 104/1/2
f 105/1/2 106/1/2 107/1/2
f 107/1/2 106/1/2 108/1/2
f 109/1/2 110/1/2 113/1/2
f 113/1/2 110/1/2 114/1/2
f 111/1/2 112/1/2 115/1/2
f 115/1/2 112/1/2 116/1/2
f 117/1/2 118/1/2 119/1/2
f 119/1/2 118/1/2 120/1/2
f 117/1/2 119/1/2 121/1/2
f 121/1/2 119/1/2 122/1/2
f 123/1/2 124/1/2 125/1/2
f 125/1/2 124/1/2 126/1/2
f 127/1/2 128/1/2 129/1/2
f 129/1/2 128/1/2 130/1/2
f 127/1/2 129/1/2 131/1/2
f 131/1/2 129/1/2 132/1/2
f 133/1/2 134/1/2 135/1/2
f 135/1/2 134/1/2 136/1/2
f 133/1/2 135/1/2 137/1/2
f 137/1/2 135/1/2 138/1/2
f 139/1/2 140/1/2 141/1/2
f 141/1/2 140/1/2 142/1/2
f 143/1/2 144/1/2 145/1/2
f 145/1/2 144/1/2 146/1/2
f 147/1/2 148/1/2 149/1/2
f 149/1/2 148/1/2 150/1/2
f 151/1/2 152/1/2 155/1/2
f 155/1/2 152/1/2 156/1/2
f 153/1/2 154/1/2 157/1/2
f 157/1/2 154/1/2 158/1/2
f 159/1/2 160/1/2 161/1/2
f 161/1/2 160/1/2 162/1/2
f 163/1/2 164/1/2 165/1/2
f 165/1/2 164/1/2 166/1/2
f 167/1/2 168/1/2 169/1/2
f 169/1/2 168/1/2 170/1/2
f 171/1/2 172/1/2 173/1/2
f 173/1/2 172/1/2 174/1/2
f 175/2/2 176/2/2 179/2/2
f 176/1/2 177/1/2 179/1/2
f 177/2/2 178/2/2 180/2/2
f 179/1/2 177/1/2 180/1/2
f 175/2/2 179/2/2 181/2/2
f 181/2/2 179/2/2 182/2/2
f 180/2/2 178/2/2 183/2/2
f 183/2/2 178/2/2 184/2/2
f 181/1/2 182/1/2 185/1/2
f 185/1/2 182/1/2 186/1/2
f 183/1/2 184/1/2 187/1/2
f 187/1/2 184/1/2 188/1/2
f 191/1/3 190/1/3 189/1/3
f 192/1/3 190/1/3 191/1/3
f 193/2/3 192/2/3 191/2/3
f 194/1/3 190/1/3 192/1/3
f 194/2/3 192/2/3 193/2/3
f 195/1/3 190/1/3 194/1/3
f 198/1/3 197/1/3 196/1/3
f 200/1/3 198/1/3 196/1/3
f 200/1/3 199/1/3 198/1/3
f 201/1/3 199/1/3 200/1/3
f 202/1/3 200/1/3 196/1/3
f 203/1/3 200/1/3 202/1/3
f 206/1/3 205/1/3 204/1/3
f 207/1/3 205/1/3 206/1/3
f 208/1/3 206/1/3 204/1/3
f 209/1/3 206/1/3 208/1/3
f 212/1/3 211/1/3 210/1/3
f 214/1/3 212/1/3 210/1/3
f 214/1/3 213/1/3 212/1/3
f 215/1/3 213/1/3 214/1/3
f 218/1/3 217/1/3 216/1/3
f 219/1/3 217/1/3 218/1/3
f 222/1/3 221/1/3 220/1/3
f 223/1/3 221/1/3 222/1/3
f 226/1/3 225/1/3 224/1/3
f 227/1/3 225/1/3 226/1/3
f 230/1/3 229/1/3 228/1/3
f 232/1/3 230/1/3 228/1/3
f 232/1/3 231/1/3 230/1/3
f 233/1/3 231/1/3 232/1/3
f 234/1/3 232/1/3 228/1/3
f 235/1/3 232/1/3 234/1/3
f 236/1/3 234/1/3 228/1/3
f 237/1/3 234/1/3 236/1/3
f 240/1/3 239/1/3 238/1/3
f 241/1/3 239/1/3 240/1/3
f 244/1/3 243/1/3 242/1/3
f 245/1/3 243/1/3 244/1/3
f 248/1/3 247/1/3 246/1/3
f 250/1/3 248/1/3 246/1/3
f 250/1/3 249/1/3 248/1/3
f 251/1/3 249/1/3 250/1/3
f 254/1/3 253/1/3 252/1/3
f 255/1/3 253/1/3 254/1/3
f 258/1/3 257/1/3 256/1/3
f 259/1/3 257/1/3 258/1/3
f 262/1/3 261/1/3 260/1/3
f 263/1/3 261/1/3 262/1/3
f 266/1/3 265/1/3 264/1/3
f 267/1/3 265/1/3 266/1/3
f 270/1/3 269/1/3 268/1/3
f 271/1/3 269/1/3 270/1/3
f 272/2/3 271/2/3 270/2/3
f 273/1/3 269/1/3 271/1/3
f 273/2/3 271/2/3 272/2/3
f 274/1/3 269/1/3 273/1/3
f 277/1/3 276/1/3 275/1/3
f 278/1/3 276/1/3 277/1/3
f 279/1/3 277/1/3 275/1/3
f 280/1/3 277/1/3 279/1/3
f 283/1/3 282/1/3 281/1/3
f 285/1/3 283/1/3 281/1/3
f 285/1/3 284/1/3 283/1/3
f 286/1/3 284/1/3 285/1/3
f 287/1/4 288/1/4 289/1/4
f 289/1/4 288/1/4 290/1/4
f 291/1/4 292/1/4 293/1/4
f 293/1/4 292/1/4 294/1/4
f 295/1/4 296/1/4 297/1/4
f 297/1/4 296/1/4 298/1/4
f 299/1/4 300/1/4 301/1/4
f 301/1/4 300/1/4 302/1/4
f 303/1/4 304/1/4 305/1/4
f 305/1/4 304/1/4 306/1/4
f 307/1/4 308/1/4 309/1/4
f 309/1/4 308/1/4 310/1/4
f 311/1/4 312/1/4 313/1/4
f 313/1/4 312/1/4 314/1/4
f 313/2/4 314/2/4 315/2/4
f 314/1/4 312/1/4 316/1/4
f 315/2/4 314/2/4 316/2/4
f 316/1/4 312/1/4 317/1/4
f 318/1/4 319/1/4 320/1/4
f 320/1/4 319/1/4 321/1/4
f 322/1/4 323/1/4 324/1/4
f 324/1/4 323/1/4 325/1/4
f 326/1/4 327/1/4 328/1/4
f 328/1/4 327/1/4 329/1/4
f 330/1/4 331/1/4 332/1/4
f 332/1/4 331/1/4 333/1/4
f 334/1/4 335/1/4 336/1/4
f 336/1/4 335/1/4 337/1/4
f 338/1/4 339/1/4 340/1/4
f 340/1/4 339/1/4 341/1/4
f 338/1/4 340/1/4 342/1/4
f 342/1/4 340/1/4 343/1/4
f 344/1/4 345/1/4 346/1/4
f 346/1/4 345/1/4 347/1/4
f 348/1/4 349/1/4 350/1/4
f 350/1/4 349/1/4 351/1/4
f 352/1/4 353/1/4 354/1/4
f 354/1/4 353/1/4 355/1/4
f 356/1/4 357/1/4 358/1/4
f 358/1/4 357/1/4 359/1/4
f 360/1/4 361/1/4 362/1/4
f 362/1/4 361/1/4 363/1/4
f 364/1/4 365/1/4 366/1/4
f 366/1/4 365/1/4 367/1/4
f 368/1/4 369/1/4 370/1/4
f 370/1/4 369/1/4 371/1/4
f 372/1/4 373/1/4 374/1/4
f 374/1/4 373/1/4 375/1/4
f 376/1/4 377/1/4 378/1/4
f 378/1/4 377/1/4 379/1/4
f 378/2/4 379/2/4 380/2/4
f 379/1/4 377/1/4 381/1/4
f 380/2/4 379/2/4 381/2/4
f 381/1/4 377/1/4 382/1/4
f 386/1/5 384/1/5 383/1/5
f 386/2/5 385/2/5 384/2/5
f 387/2/5 385/2/5 386/2/5
f 388/1/5 386/1/5 383/1/5
f 388/1/5 387/1/5 386/1/5
f 389/1/5 387/1/5 388/1/5
f 390/1/5 388/1/5 383/1/5
f 391/2/5 389/2/5 388/2/5
f 391/1/5 388/1/5 390/1/5
f 392/2/5 389/2/5 391/2/5
f 393/1/6 394/1/6 396/1/6
f 394/1/6 395/1/6 396/1/6
f 396/1/6 395/1/6 397/1/6
f 397/1/6 395/1/6 398/1/6
f 398/1/6 395/1/6 399/1/6
f 393/1/6 396/1/6 400/1/6
f 397/1/6 398/1/6 401/1/6
f 401/1/6 398/1/6 402/1/6
f 400/1/6 401/1/6 402/1/6
f 402/1/6 398/1/6 403/1/6
f 400/1/6 402/1/6 404/1/6
f 404/1/6 402/1/6 405/1/6
f 405/1/6 402/1/6 406/1/6
f 399/1/6 395/1/6 407/1/6
f 393/1/6 400/1/6 408/1/6
f 400/1/6 404/1/6 408/1/6
f 408/1/6 404/1/6 409/1/6
f 405/1/6 406/1/6 411/1/6
f 406/1/6 407/1/6 411/1/6
f 393/1/6 408/1/6 412/1/6
f 412/1/6 408/1/6 413/1/6
f 410/1/6 411/1/6 414/1/6
f 411/1/6 407/1/6 415/1/6
f 414/1/6 411/1/6 415/1/6
f 407/1/6 395/1/6 415/1/6
f 415/1/6 395/1/6 416/1/6
f 417/1/6 418/1/6 419/1/6
f 419/1/6 418/1/6 420/1/6
f 417/1/6 419/1/6 421/1/6
f 421/1/6 419/1/6 422/1/6
f 422/1/6 419/1/6 423/1/6
f 420/1/6 418/1/6 424/1/6
f 422/1/6 423/1/6 425/1/6
f 423/1/6 424/1/6 425/1/6
f 425/1/6 424/1/6 426/1/6
f 417/1/6 421/1/6 427/1/6
f 422/1/6 425/1/6 428/1/6
f 428/1/6 425/1/6 429/1/6
f 427/1/6 428/1/6 429/1/6
f 426/1/6 424/1/6 430/1/6
f 427/1/6 429/1/6 431/1/6
f 429/1/6 430/1/6 431/1/6
f 417/1/6 427/1/6 431/1/6
f 424/1/6 418/1/6 432/1/6
f 431/1/6 430/1/6 432/1/6
f 430/1/6 424/1/6 432/1/6
f 433/1/6 434/1/6 435/1/6
f 435/1/6 434/1/6 436/1/6
f 433/1/6 435/1/6 437/1/6
f 436/1/6 434/1/6 438/1/6
f 433/1/6 437/1/6 441/1/6
f 437/1/6 438/1/6 441/1/6
f 438/1/6 434/1/6 442/1/6
f 441/1/6 438/1/6 442/1/6
f 439/1/6 440/1/6 444/1/6
f 444/1/6 440/1/6 445/1/6
f 443/1/6 444/1/6 445/1/6
f 445/1/6 440/1/6 446/1/6
f 443/1/6 445/1/6 447/1/6
f 446/1/6 440/1/6 448/1/6
f 443/1/6 447/1/6 451/1/6
f 447/1/6 448/1/6 451/1/6
f 448/1/6 440/1/6 452/1/6
f 451/1/6 448/1/6 452/1/6
f 449/1/6 450/1/6 453/1/6
f 449/1/6 453/1/6 456/1/6
f 453/1/6 454/1/6 456/1/6
f 456/1/6 454/1/6 457/1/6
f 457/1/6 454/1/6 458/1/6
f 455/1/6 456/1/6 459/1/6
f 456/1/6 457/1/6 459/1/6
f 459/1/6 457/1/6 460/1/6
f 455/1/6 459/1/6 462/1/6
f 460/1/6 457/1/6 463/1/6
f 462/1/6 459/1/6 465/1/6
f 461/1/6 462/1/6 465/1/6
f 460/1/6 463/1/6 466/1/6
f 463/1/6 464/1/6 466/1/6
f 466/1/6 464/1/6 467/1/6
f 465/1/6 466/1/6 467/1/6
f 467/1/6 464/1/6 468/1/6
f 465/1/6 467/1/6 469/1/6
f 468/1/6 464/1/6 470/1/6
f 465/1/6 469/1/6 471/1/6
f 469/1/6 470/1/6 471/1/6
f 471/1/6 470/1/6 472/1/6
f 465/1/6 471/1/6 473/1/6
f 472/1/6 470/1/6 474/1/6
f 461/1/6 465/1/6 475/1/6
f 473/1/6 474/1/6 475/1/6
f 465/1/6 473/1/6 475/1/6
f 474/1/6 470/1/6 476/1/6
f 475/1/6 474/1/6 476/1/6
f 470/1/6 464/1/6 476/1/6
f 477/1/6 478/1/6 481/1/6
f 479/1/6 480/1/6 482/1/6
f 477/1/6 481/1/6 485/1/6
f 481/1/6 482/1/6 485/1/6
f 482/1/6 480/1/6 486/1/6
f 485/1/6 482/1/6 486/1/6
f 483/1/6 484/1/6 490/1/6
f 489/1/6 490/1/6 491/1/6
f 490/1/6 484/1/6 492/1/6
f 491/1/6 490/1/6 492/1/6
f 487/1/6 488/1/6 493/1/6
f 487/1/6 493/1/6 495/1/6
f 493/1/6 494/1/6 495/1/6
f 495/1/6 494/1/6 496/1/6
f 497/1/6 498/1/6 499/1/6
f 499/1/6 498/1/6 500/1/6
f 505/1/6 506/1/6 507/1/6
f 507/1/6 506/1/6 508/1/6
f 505/1/6 507/1/6 509/1/6
f 508/1/6 506/1/6 510/1/6
f 505/1/6 509/1/6 511/1/6
f 509/1/6 510/1/6 511/1/6
f 510/1/6 506/1/6 512/1/6
f 511/1/6 510/1/6 512/1/6
f 501/1/6 502/1/6 513/1/6
f 503/1/6 504/1/6 514/1/6
f 501/1/6 513/1/6 517/1/6
f 513/1/6 514/1/6 517/1/6
f 514/1/6 504/1/6 518/1/6
f 517/1/6 514/1/6 518/1/6
f 515/1/6 516/1/6 519/1/6
f 519/1/6 516/1/6 520/1/6
f 521/1/6 522/1/6 523/1/6
f 523/1/6 522/1/6 524/1/6
f 521/1/6 523/1/6 525/1/6
f 524/1/6 522/1/6 526/1/6
f 521/1/6 525/1/6 527/1/6
f 525/1/6 526/1/6 527/1/6
f 526/1/6 522/1/6 528/1/6
f 527/1/6 526/1/6 528/1/6
f 529/1/6 530/1/6 532/1/6
f 531/1/6 532/1/6 533/1/6
f 532/1/6 530/1/6 534/1/6
f 533/1/6 532/1/6 534/1/6
f 535/1/6 536/1/6 537/1/6
f 535/1/6 537/1/6 539/1/6
f 537/1/6 538/1/6 539/1/6
f 539/1/6 538/1/6 540/1/6
f 541/1/6 542/1/6 543/1/6
f 543/1/6 542/1/6 544/1/6
f 545/1/6 546/1/6 549/1/6
f 549/1/6 546/1/6 550/1/6
f 547/1/6 548/1/6 551/1/6
f 551/1/6 548/1/6 552/1/6
f 555/1/6 556/1/6 557/1/6
f 557/1/6 556/1/6 558/1/6
f 553/1/6 554/1/6 559/1/6
f 559/1/6 554/1/6 560/1/6
f 561/1/6 562/1/6 563/1/6
f 563/1/6 562/1/6 564/1/6
f 565/1/6 566/1/6 567/1/6
f 567/1/6 566/1/6 568/1/6
f 569/1/6 570/1/6 571/1/6
f 571/1/6 570/1/6 572/1/6
