%YAML 1.1
%TAG !u! tag:unity3d.com,2011:
--- !u!95 &8124640438341538725
Animator:
  serializedVersion: 3
  m_ObjectHideFlags: 0
  m_CorrespondingSourceObject: {fileID: 0}
  m_PrefabInstance: {fileID: 0}
  m_PrefabAsset: {fileID: 0}
  m_GameObject: {fileID: 1932033727845653797}
  m_Enabled: 1
  m_Avatar: {fileID: 0}
  m_Controller: {fileID: 9100000, guid: 2cf24fa952ce9a5469762a1d35bc0d91, type: 2}
  m_CullingMode: 0
  m_UpdateMode: 0
  m_ApplyRootMotion: 0
  m_LinearVelocityBlending: 0
  m_WarningMessage: 
  m_HasTransformHierarchy: 1
  m_AllowConstantClipSamplingOptimization: 1
  m_KeepAnimatorControllerStateOnDisable: 0
--- !u!1 &7842971246263823204
GameObject:
  m_ObjectHideFlags: 0
  m_CorrespondingSourceObject: {fileID: 0}
  m_PrefabInstance: {fileID: 0}
  m_PrefabAsset: {fileID: 0}
  serializedVersion: 6
  m_Component:
  - component: {fileID: 3049832547911365122}
  m_Layer: 0
  m_Name: Target_base
  m_TagString: Untagged
  m_Icon: {fileID: 0}
  m_NavMeshLayer: 0
  m_StaticEditorFlags: 0
  m_IsActive: 1
--- !u!4 &3049832547911365122
Transform:
  m_ObjectHideFlags: 0
  m_CorrespondingSourceObject: {fileID: 0}
  m_PrefabInstance: {fileID: 0}
  m_PrefabAsset: {fileID: 0}
  m_GameObject: {fileID: 7842971246263823204}
  m_LocalRotation: {x: 0, y: 0, z: 0, w: 1}
  m_LocalPosition: {x: 0, y: 0, z: 0}
  m_LocalScale: {x: 1, y: 1, z: 1}
  m_Children:
  - {fileID: 3212385572555763510}
  m_Father: {fileID: 0}
  m_RootOrder: 0
  m_LocalEulerAnglesHint: {x: 0, y: 0, z: 0}
--- !u!1001 &7633068543413519404
PrefabInstance:
  m_ObjectHideFlags: 0
  serializedVersion: 2
  m_Modification:
    m_TransformParent: {fileID: 3049832547911365122}
    m_Modifications:
    - target: {fileID: -5975033157549033438, guid: 1a999d7e5ebc2044a9c4fcd6cafddd51,
        type: 3}
      propertyPath: m_LocalPosition.z
      value: 0.22
      objectReference: {fileID: 0}
    - target: {fileID: -5975033157549033438, guid: 1a999d7e5ebc2044a9c4fcd6cafddd51,
        type: 3}
      propertyPath: m_LocalPosition.x
      value: 1.58
      objectReference: {fileID: 0}
    - target: {fileID: -5975033157549033438, guid: 1a999d7e5ebc2044a9c4fcd6cafddd51,
        type: 3}
      propertyPath: m_LocalScale.x
      value: 0.15
      objectReference: {fileID: 0}
    - target: {fileID: -5975033157549033438, guid: 1a999d7e5ebc2044a9c4fcd6cafddd51,
        type: 3}
      propertyPath: m_LocalScale.y
      value: 0.15
      objectReference: {fileID: 0}
    - target: {fileID: -5975033157549033438, guid: 1a999d7e5ebc2044a9c4fcd6cafddd51,
        type: 3}
      propertyPath: m_LocalScale.z
      value: 0.15
      objectReference: {fileID: 0}
    - target: {fileID: -5975033157549033438, guid: 1a999d7e5ebc2044a9c4fcd6cafddd51,
        type: 3}
      propertyPath: m_LocalPosition.y
      value: 0.14
      objectReference: {fileID: 0}
    - target: {fileID: -4216859302048453862, guid: 1a999d7e5ebc2044a9c4fcd6cafddd51,
        type: 3}
      propertyPath: m_LocalPosition.x
      value: -1.347
      objectReference: {fileID: 0}
    - target: {fileID: -4216859302048453862, guid: 1a999d7e5ebc2044a9c4fcd6cafddd51,
        type: 3}
      propertyPath: m_LocalPosition.y
      value: 0
      objectReference: {fileID: 0}
    - target: {fileID: -4216859302048453862, guid: 1a999d7e5ebc2044a9c4fcd6cafddd51,
        type: 3}
      propertyPath: m_LocalPosition.z
      value: 0.013
      objectReference: {fileID: 0}
    - target: {fileID: -4216859302048453862, guid: 1a999d7e5ebc2044a9c4fcd6cafddd51,
        type: 3}
      propertyPath: m_LocalRotation.x
      value: 0
      objectReference: {fileID: 0}
    - target: {fileID: -4216859302048453862, guid: 1a999d7e5ebc2044a9c4fcd6cafddd51,
        type: 3}
      propertyPath: m_LocalRotation.y
      value: -0
      objectReference: {fileID: 0}
    - target: {fileID: -4216859302048453862, guid: 1a999d7e5ebc2044a9c4fcd6cafddd51,
        type: 3}
      propertyPath: m_LocalRotation.z
      value: -0
      objectReference: {fileID: 0}
    - target: {fileID: -4216859302048453862, guid: 1a999d7e5ebc2044a9c4fcd6cafddd51,
        type: 3}
      propertyPath: m_LocalRotation.w
      value: 1
      objectReference: {fileID: 0}
    - target: {fileID: -4216859302048453862, guid: 1a999d7e5ebc2044a9c4fcd6cafddd51,
        type: 3}
      propertyPath: m_RootOrder
      value: 0
      objectReference: {fileID: 0}
    - target: {fileID: -4216859302048453862, guid: 1a999d7e5ebc2044a9c4fcd6cafddd51,
        type: 3}
      propertyPath: m_LocalEulerAnglesHint.x
      value: 0
      objectReference: {fileID: 0}
    - target: {fileID: -4216859302048453862, guid: 1a999d7e5ebc2044a9c4fcd6cafddd51,
        type: 3}
      propertyPath: m_LocalEulerAnglesHint.y
      value: 0
      objectReference: {fileID: 0}
    - target: {fileID: -4216859302048453862, guid: 1a999d7e5ebc2044a9c4fcd6cafddd51,
        type: 3}
      propertyPath: m_LocalEulerAnglesHint.z
      value: 0
      objectReference: {fileID: 0}
    - target: {fileID: -2416733968201007103, guid: 1a999d7e5ebc2044a9c4fcd6cafddd51,
        type: 3}
      propertyPath: m_Materials.Array.data[0]
      value: 
      objectReference: {fileID: 2100000, guid: 2821d9a5c5d6ed94c9f7281211e6c465, type: 2}
    - target: {fileID: -927199367670048503, guid: 1a999d7e5ebc2044a9c4fcd6cafddd51,
        type: 3}
      propertyPath: m_Name
      value: Arrow
      objectReference: {fileID: 0}
    m_RemovedComponents: []
  m_SourcePrefab: {fileID: 100100000, guid: 1a999d7e5ebc2044a9c4fcd6cafddd51, type: 3}
--- !u!1 &1932033727845653797 stripped
GameObject:
  m_CorrespondingSourceObject: {fileID: -927199367670048503, guid: 1a999d7e5ebc2044a9c4fcd6cafddd51,
    type: 3}
  m_PrefabInstance: {fileID: 7633068543413519404}
  m_PrefabAsset: {fileID: 0}
--- !u!4 &3212385572555763510 stripped
Transform:
  m_CorrespondingSourceObject: {fileID: -4216859302048453862, guid: 1a999d7e5ebc2044a9c4fcd6cafddd51,
    type: 3}
  m_PrefabInstance: {fileID: 7633068543413519404}
  m_PrefabAsset: {fileID: 0}
