# MagicaVoxel @ Ephtracy

# group
o 

# material
mtllib human_3-8.mtl
usemtl palette

# normals
vn -1 0 0
vn 1 0 0
vn 0 0 1
vn 0 0 -1
vn 0 -1 0
vn 0 1 0

# texcoords
vt 0.0253906 0.5
vt 0.0722656 0.5
vt 0.0761719 0.5

# verts
v -0.1 -0.8 0.6
v -0.1 -0.8 0.2
v -0.1 0.3 0.6
v -0.1 0.3 0.2
v -4.47035e-008 -1 0.6
v -4.47035e-008 -1 0.2
v -4.47035e-008 -0.9 0.6
v -4.47035e-008 -0.9 0.5
v -4.47035e-008 -0.9 0.3
v -4.47035e-008 -0.9 0.2
v -4.47035e-008 -0.8 0.5
v -4.47035e-008 -0.8 0.3
v 0.1 0.3 0.4
v 0.1 0.3 0.3
v 0.1 0.4 0.4
v 0.1 0.4 0.3
v 0.2 -0.8 0.5
v 0.2 -0.8 0.3
v 0.2 0.2 0.5
v 0.2 0.2 0.3
v -4.47035e-008 -0.8 0.5
v -4.47035e-008 -0.8 0.3
v -4.47035e-008 0.2 0.5
v -4.47035e-008 0.2 0.3
v 0.2 -0.9 0.5
v 0.2 -0.9 0.3
v 0.2 -0.8 0.5
v 0.2 -0.8 0.3
v 0.2 0.3 0.4
v 0.2 0.3 0.3
v 0.2 0.4 0.4
v 0.2 0.4 0.3
v 0.3 -0.8 0.6
v 0.3 -0.8 0.2
v 0.3 0.3 0.6
v 0.3 0.3 0.2
v 0.6 -1 0.6
v 0.6 -1 0.2
v 0.6 -0.9 0.6
v 0.6 -0.9 0.2
v -0.1 -0.8 0.6
v -0.1 0.3 0.6
v -4.47035e-008 -1 0.6
v -4.47035e-008 -0.9 0.6
v 0.3 -0.8 0.6
v 0.3 0.3 0.6
v 0.6 -1 0.6
v 0.6 -0.9 0.6
v -4.47035e-008 -0.9 0.5
v -4.47035e-008 -0.8 0.5
v 0.2 -0.9 0.5
v 0.2 -0.8 0.5
v 0.1 0.3 0.4
v 0.1 0.4 0.4
v 0.2 0.3 0.4
v 0.2 0.4 0.4
v -4.47035e-008 -0.8 0.3
v -4.47035e-008 0.2 0.3
v 0.2 -0.8 0.3
v 0.2 0.2 0.3
v -4.47035e-008 -0.8 0.5
v -4.47035e-008 0.2 0.5
v 0.2 -0.8 0.5
v 0.2 0.2 0.5
v -4.47035e-008 -0.9 0.3
v -4.47035e-008 -0.8 0.3
v 0.1 0.3 0.3
v 0.1 0.4 0.3
v 0.2 -0.9 0.3
v 0.2 -0.8 0.3
v 0.2 0.3 0.3
v 0.2 0.4 0.3
v -0.1 -0.8 0.2
v -0.1 0.3 0.2
v -4.47035e-008 -1 0.2
v -4.47035e-008 -0.9 0.2
v 0.3 -0.8 0.2
v 0.3 0.3 0.2
v 0.6 -1 0.2
v 0.6 -0.9 0.2
v -4.47035e-008 -1 0.6
v 0.6 -1 0.6
v -4.47035e-008 -1 0.2
v 0.6 -1 0.2
v -0.1 -0.8 0.6
v 0.3 -0.8 0.6
v -4.47035e-008 -0.8 0.5
v 0.2 -0.8 0.5
v -4.47035e-008 -0.8 0.3
v 0.2 -0.8 0.3
v -0.1 -0.8 0.2
v 0.3 -0.8 0.2
v -4.47035e-008 0.2 0.5
v 0.2 0.2 0.5
v -4.47035e-008 0.2 0.3
v 0.2 0.2 0.3
v -4.47035e-008 -0.9 0.6
v 0.6 -0.9 0.6
v -4.47035e-008 -0.9 0.5
v 0.2 -0.9 0.5
v -4.47035e-008 -0.9 0.3
v 0.2 -0.9 0.3
v -4.47035e-008 -0.9 0.2
v 0.6 -0.9 0.2
v -4.47035e-008 -0.8 0.5
v 0.2 -0.8 0.5
v -4.47035e-008 -0.8 0.3
v 0.2 -0.8 0.3
v -0.1 0.3 0.6
v 0.3 0.3 0.6
v 0.1 0.3 0.4
v 0.2 0.3 0.4
v 0.1 0.3 0.3
v 0.2 0.3 0.3
v -0.1 0.3 0.2
v 0.3 0.3 0.2
v 0.1 0.4 0.4
v 0.2 0.4 0.4
v 0.1 0.4 0.3
v 0.2 0.4 0.3

# faces
f 3/2/1 2/2/1 1/2/1
f 4/2/1 2/2/1 3/2/1
f 7/1/1 6/1/1 5/1/1
f 8/1/1 6/1/1 7/1/1
f 9/1/1 6/1/1 8/1/1
f 10/1/1 6/1/1 9/1/1
f 11/1/1 9/1/1 8/1/1
f 12/1/1 9/1/1 11/1/1
f 15/3/1 14/3/1 13/3/1
f 16/3/1 14/3/1 15/3/1
f 19/2/1 18/2/1 17/2/1
f 20/2/1 18/2/1 19/2/1
f 21/2/2 22/2/2 23/2/2
f 23/2/2 22/2/2 24/2/2
f 25/1/2 26/1/2 27/1/2
f 27/1/2 26/1/2 28/1/2
f 29/3/2 30/3/2 31/3/2
f 31/3/2 30/3/2 32/3/2
f 33/2/2 34/2/2 35/2/2
f 35/2/2 34/2/2 36/2/2
f 37/1/2 38/1/2 39/1/2
f 39/1/2 38/1/2 40/1/2
f 45/2/3 42/2/3 41/2/3
f 46/2/3 42/2/3 45/2/3
f 47/1/3 44/1/3 43/1/3
f 48/1/3 44/1/3 47/1/3
f 51/1/3 50/1/3 49/1/3
f 52/1/3 50/1/3 51/1/3
f 55/3/3 54/3/3 53/3/3
f 56/3/3 54/3/3 55/3/3
f 59/2/3 58/2/3 57/2/3
f 60/2/3 58/2/3 59/2/3
f 61/2/4 62/2/4 63/2/4
f 63/2/4 62/2/4 64/2/4
f 65/1/4 66/1/4 69/1/4
f 69/1/4 66/1/4 70/1/4
f 67/3/4 68/3/4 71/3/4
f 71/3/4 68/3/4 72/3/4
f 73/2/4 74/2/4 77/2/4
f 77/2/4 74/2/4 78/2/4
f 75/1/4 76/1/4 79/1/4
f 79/1/4 76/1/4 80/1/4
f 83/1/5 82/1/5 81/1/5
f 84/1/5 82/1/5 83/1/5
f 87/2/5 86/2/5 85/2/5
f 88/2/5 86/2/5 87/2/5
f 89/2/5 87/2/5 85/2/5
f 90/2/5 86/2/5 88/2/5
f 91/2/5 89/2/5 85/2/5
f 91/2/5 90/2/5 89/2/5
f 92/2/5 86/2/5 90/2/5
f 92/2/5 90/2/5 91/2/5
f 95/2/5 94/2/5 93/2/5
f 96/2/5 94/2/5 95/2/5
f 97/1/6 98/1/6 99/1/6
f 99/1/6 98/1/6 100/1/6
f 100/1/6 98/1/6 102/1/6
f 101/1/6 102/1/6 103/1/6
f 102/1/6 98/1/6 104/1/6
f 103/1/6 102/1/6 104/1/6
f 105/1/6 106/1/6 107/1/6
f 107/1/6 106/1/6 108/1/6
f 109/2/6 110/2/6 111/2/6
f 111/2/6 110/2/6 112/2/6
f 109/2/6 111/2/6 113/2/6
f 112/2/6 110/2/6 114/2/6
f 109/2/6 113/2/6 115/2/6
f 113/2/6 114/2/6 115/2/6
f 114/2/6 110/2/6 116/2/6
f 115/2/6 114/2/6 116/2/6
f 117/3/6 118/3/6 119/3/6
f 119/3/6 118/3/6 120/3/6
